<?xml version="1.0" standalone="no"?>
<!DOCTYPE svg PUBLIC "-//W3C//DTD SVG 20010904//EN"
 "http://www.w3.org/TR/2001/REC-SVG-20010904/DTD/svg10.dtd">
<svg version="1.0" xmlns="http://www.w3.org/2000/svg"
 width="274.596930pt" height="201.838270pt" viewBox="0 0 274.596930 201.838270"
 preserveAspectRatio="xMidYMid meet">
<metadata>
Created by potrace 1.16, written by Peter Selinger 2001-2019
</metadata>
<g transform="translate(-1.277375,203.998992) scale(0.100000,-0.100000)"
fill="#000000" stroke="none">
<path d="M1350 2024 l-105 -12 -22 -5 -21 -6 -49 -6 -48 -7 -70 -26 -70 -26
-25 -17 -25 -16 -25 -8 -25 -8 -90 -43 -90 -44 -85 -50 -85 -49 -34 -17 -35
-16 -51 -33 -52 -33 -31 -7 -31 -6 -55 -30 -55 -30 -30 -35 -31 -35 0 -12 0
-13 -31 -23 -31 -23 -18 -39 -17 -40 3 -47 4 -47 20 -80 19 -80 17 -80 17 -80
2 -85 2 -85 2 -12 1 -12 47 -27 48 -27 18 -15 17 -15 0 -17 0 -16 38 -36 37
-36 71 -46 71 -46 43 -15 43 -15 64 0 65 0 16 -19 17 -20 90 -76 90 -77 48
-24 48 -25 42 -6 42 -6 65 -1 65 -1 45 24 45 24 55 28 55 28 75 30 75 29 190
5 189 5 3 9 3 9 63 -4 62 -4 10 -8 10 -8 43 -7 43 -7 56 -34 56 -33 6 -6 6 -6
5 -51 5 -51 31 -17 30 -17 25 -8 24 -7 40 -18 40 -18 47 7 46 8 26 16 26 17
20 39 20 40 11 7 11 6 14 35 15 34 -16 46 -16 47 -22 15 -22 16 -7 1 -8 2 -7
1 -8 1 31 19 32 19 34 34 33 34 12 38 12 38 -11 27 -11 26 1 8 2 7 -43 44 -44
43 -34 8 -34 7 -36 0 -35 0 -41 -21 -41 -20 -34 -41 -35 -40 -13 0 -13 0 -19
-17 -19 -17 -16 16 -16 17 35 48 34 48 55 38 54 38 20 17 20 17 78 64 77 64 0
26 1 26 4 60 4 60 6 50 5 50 14 53 14 53 11 13 11 12 15 109 15 108 0 43 0 43
-37 10 -38 11 -42 0 -42 0 -23 -10 -23 -9 -100 -12 -100 -11 -55 -7 -55 -8
-21 -7 -21 -7 -10 -27 -10 -27 -16 38 -16 37 -13 0 -13 0 -25 -13 -26 -14 -32
-6 -32 -6 0 12 0 13 -45 90 -46 89 -57 58 -56 57 -21 6 -20 7 -30 22 -30 23
-62 31 -61 30 -54 21 -53 20 0 -1 0 -2 -105 -13z m155 -60 l36 -6 30 -31 30
-30 62 -40 62 -39 42 -35 43 -34 45 -63 45 -64 0 -6 0 -6 -9 0 -9 0 -26 45
-27 45 -54 40 -54 40 -6 10 -6 10 -49 25 -49 25 -23 0 -22 0 -44 17 -43 16
-10 -10 -11 -11 82 -43 82 -42 41 -44 42 -45 4 -11 4 -12 29 -42 29 -43 -9 0
-10 0 -32 50 -32 50 -12 2 -11 1 -10 1 -10 2 -12 7 -13 8 -10 -6 -10 -6 -49
40 -49 41 -22 0 -21 0 61 -69 62 -69 22 -66 23 -66 -14 0 -13 0 0 15 0 14 -17
10 -18 9 -25 48 -25 48 -45 33 -45 32 -31 26 -32 25 -15 0 -15 0 -30 25 -30
25 -26 0 -26 0 0 -9 0 -9 38 -15 37 -15 38 -36 38 -36 -16 0 -16 0 6 -21 7
-21 -20 6 -19 6 -12 -14 -11 -13 7 -19 7 -19 -44 38 -44 37 -13 0 -13 0 0 -8
0 -8 17 -24 18 -25 48 -94 47 -94 -3 -3 -3 -3 -40 52 -39 52 -26 40 -26 40
-66 27 -67 26 -5 -8 -5 -8 37 -30 38 -30 28 -72 28 -72 -4 -4 -4 -4 -38 55
-38 55 -66 49 -66 48 -24 12 -23 13 -9 -9 -9 -9 22 -13 23 -13 46 -61 47 -62
16 -38 15 -38 -30 23 -30 23 -59 53 -60 52 -9 0 -10 0 -6 -10 -7 -11 34 -38
33 -38 30 -39 30 -38 16 -26 17 -27 6 -30 7 -31 52 -5 52 -5 32 -1 32 -1 50
-25 50 -26 6 -10 6 -9 68 -35 68 -34 6 -15 6 -16 15 0 15 0 -2 -27 -2 -28 33
-3 33 -3 -6 -20 -7 -20 19 -5 19 -5 12 -20 12 -19 -10 0 -10 0 0 -15 0 -15 15
0 15 0 39 -35 38 -35 10 0 10 0 30 -15 31 -15 27 -35 26 -35 27 -14 27 -14 23
-31 22 -31 -26 10 -27 11 8 -43 7 -43 2 -19 2 -19 19 -13 18 -13 8 5 8 5 -9
24 -9 24 12 8 12 7 15 3 15 2 12 -16 13 -17 7 8 7 7 -12 19 -12 20 10 0 10 0
16 -25 16 -25 10 0 10 0 -6 16 -6 16 25 -6 24 -6 -5 14 -6 15 -64 21 -64 22 0
24 0 24 19 -12 19 -12 16 13 16 13 0 18 0 18 -35 31 -36 31 -6 0 -6 0 -18 -16
-18 -16 -56 27 -56 28 5 14 6 14 -15 28 -14 29 -36 21 -36 21 -14 0 -14 0 -3
27 -3 26 -13 5 -12 4 -9 -23 -8 -23 -12 23 -12 22 12 15 11 14 -11 0 -11 0 0
-11 0 -11 -40 32 -40 32 0 41 -1 42 -15 40 -14 40 -10 45 -11 45 -5 20 -6 20
17 -22 16 -23 43 -25 43 -25 11 0 12 0 0 13 0 13 -55 52 -55 53 0 8 0 7 73 22
73 22 45 0 44 0 35 11 35 10 55 9 55 8 70 16 70 17 28 6 27 6 0 -17 0 -16 24
-15 25 -16 33 3 33 3 10 33 9 32 44 0 43 0 22 12 21 11 47 -2 47 -1 113 10
113 10 3 -3 3 -3 -53 -55 -53 -55 -42 4 -42 4 -6 -16 -6 -17 16 -18 17 -18
-51 -39 -50 -38 -34 2 -34 3 -7 -11 -7 -12 14 -14 15 -15 -41 -42 -41 -42 -41
-45 -41 -45 -54 -42 -54 -43 -18 0 -18 0 27 35 26 35 -16 0 -15 0 -23 -30 -22
-30 -24 0 -23 0 15 16 16 15 0 15 0 14 -5 0 -6 0 -25 -16 -24 -17 -36 6 -36 6
-24 16 -24 15 12 20 12 19 -6 6 -6 7 -21 -11 -20 -11 -38 17 -38 18 -50 42
-50 43 -7 0 -8 0 0 -9 0 -9 49 -35 49 -35 30 -16 30 -16 14 -12 14 -13 29 -18
30 -18 55 -28 55 -29 41 -12 41 -12 -4 -18 -5 -17 21 -34 21 -34 0 -21 0 -22
-25 -16 -25 -16 0 -19 0 -18 30 -37 29 -38 7 -59 7 -59 11 -8 11 -9 47 -26 48
-26 52 -6 52 -6 19 -10 18 -10 15 12 15 13 19 36 19 37 28 11 28 11 23 6 22 6
34 -11 34 -11 16 -18 17 -18 -24 4 -25 5 -6 -11 -7 -10 21 -11 20 -11 0 -14 0
-15 -9 0 -10 0 -6 10 -6 10 -15 0 -14 0 4 -27 5 -26 11 -11 11 -11 9 15 9 14
6 -6 7 -7 -7 -29 -6 -30 -50 -25 -50 -24 -5 9 -5 8 -10 -5 -9 -6 0 -15 0 -14
25 -10 25 -10 0 -10 0 -11 43 -18 43 -18 12 -27 12 -27 0 -12 0 -12 -20 32
-20 33 -11 0 -11 0 7 -17 8 -18 4 -31 5 -30 -16 -13 -16 -13 0 20 0 20 -21 23
-20 24 6 -36 5 -36 -6 -16 -6 -15 -14 -6 -15 -6 2 13 1 12 -1 18 -1 17 -10 0
-11 0 -6 -17 -6 -18 -21 -17 -21 -18 -15 0 -14 0 12 12 12 12 0 14 0 14 -17
-7 -18 -7 -17 -5 -18 -5 0 31 0 32 -15 5 -15 6 0 12 0 11 -20 13 -20 12 0 35
0 36 -15 6 -16 6 -12 -17 -13 -17 -16 6 -17 7 11 24 11 25 -12 12 -12 12 -21
-28 -20 -27 -9 6 -9 5 0 25 0 24 -19 0 -19 0 -12 -15 -12 -15 -19 11 -19 10 0
19 0 20 -17 0 -18 0 -25 -20 -25 -20 -14 0 -15 0 12 12 12 12 0 18 0 18 -5 0
-5 0 -21 -21 -22 -22 -13 24 -13 24 -1 16 0 17 -25 16 -24 16 -6 0 -5 0 0 -28
0 -28 -22 -2 -23 -1 -17 22 -17 22 -10 -10 -10 -10 14 -29 15 -29 -4 -5 -5 -5
-51 33 -51 33 -17 35 -17 36 -12 4 -13 4 0 -27 0 -26 16 -32 16 -32 16 -17 15
-18 -10 0 -11 0 -33 14 -34 15 -34 25 -35 26 -13 0 -13 0 0 -12 1 -13 44 -35
44 -34 -4 -4 -4 -4 -38 7 -38 7 -37 41 -38 40 -6 -6 -6 -6 6 -25 6 -26 37 -36
37 -37 -30 7 -29 7 -47 30 -46 30 -17 35 -16 34 -9 -5 -10 -6 15 -37 15 -37
43 -41 42 -41 15 -5 15 -6 -11 -12 -12 -12 -56 36 -56 36 -11 0 -10 0 -44 46
-45 46 0 -19 0 -18 23 -38 23 -38 49 -34 49 -35 -35 0 -34 0 -46 28 -46 27
-32 36 -31 37 -15 36 -16 37 -9 -6 -9 -5 14 -48 15 -47 0 -7 0 -6 26 -32 26
-31 -5 -6 -6 -5 -35 21 -35 22 -45 50 -45 50 -13 35 -12 34 -14 0 -14 0 6 -27
7 -28 24 -50 24 -50 -51 55 -50 55 -20 43 -19 42 -9 0 -10 0 0 -30 0 -30 -13
0 -13 0 -18 32 -19 31 -1 51 -1 51 -21 -3 -20 -3 -11 24 -11 23 14 19 14 19 0
14 0 14 -15 -6 -15 -5 0 14 0 15 -11 0 -11 0 4 88 4 88 28 45 27 44 33 52 33
52 46 35 45 35 32 16 31 16 6 15 5 14 17 0 16 1 18 13 18 14 -10 7 -11 6 0 17
0 17 -29 61 -29 62 -44 30 -45 31 -25 6 -26 7 -7 -12 -7 -12 30 -31 31 -32 -1
-5 0 -5 16 -54 16 -55 0 -10 -1 -11 -13 31 -14 31 -32 37 -33 37 -16 9 -17 9
-13 -8 -13 -8 16 -25 16 -24 20 -59 20 -58 0 -14 0 -13 -10 0 -10 0 0 16 0 16
-30 57 -31 56 -17 21 -17 21 -25 15 -25 16 -33 -14 -33 -15 3 -17 3 -16 24
-13 25 -12 28 -62 28 -62 6 -41 5 -41 -25 45 -24 45 -34 37 -33 37 -61 53 -61
53 -52 19 -52 18 -44 -16 -43 -17 -13 -15 -12 -15 11 -11 11 -11 42 17 42 17
41 -7 41 -6 30 -17 31 -16 47 -51 47 -51 35 -121 35 -121 0 -18 0 -18 -35
-114 -35 -114 0 -42 0 -42 15 -44 15 -43 -24 -25 -25 -26 -14 -27 -13 -26 -14
8 -13 8 13 32 13 32 24 35 24 35 -6 6 -5 5 -25 -23 -24 -23 -18 -43 -18 -44
-7 0 -7 0 -5 9 -5 8 29 46 29 46 -9 6 -8 5 -41 -47 -41 -46 -5 5 -4 4 24 37
25 36 0 10 0 11 -9 0 -10 0 -30 -37 -30 -37 -8 8 -7 7 13 20 12 21 -5 6 -6 5
-18 -16 -18 -16 -24 7 -25 7 -54 58 -54 57 11 26 12 25 0 42 0 42 -25 95 -25
95 -20 85 -20 85 0 49 0 48 26 30 25 31 24 47 24 48 38 23 38 24 20 12 20 12
25 11 25 11 15 13 15 13 50 25 50 25 70 32 70 32 25 15 25 15 70 35 69 34 12
0 12 0 52 24 52 24 21 20 22 19 69 22 69 22 10 -10 11 -11 23 0 23 0 0 9 0 9
58 6 57 5 70 7 70 6 4 4 5 5 12 -5 13 -5 36 -7z m1160 -510 l-15 -49 -10 -102
-10 -102 -20 -63 -20 -63 0 -62 0 -62 -8 -5 -8 -5 -3 79 -2 78 15 31 16 30 0
11 0 10 -9 0 -8 0 -48 -92 -48 -93 -14 -20 -15 -20 7 25 8 25 27 60 28 60 45
75 45 75 -5 9 -6 8 -33 -53 -34 -54 -60 -117 -60 -117 -10 -6 -10 -6 19 43 19
43 30 66 30 66 61 101 61 101 0 6 0 5 -9 0 -9 0 -53 -87 -52 -88 -71 -130 -70
-130 -53 -105 -53 -105 6 30 5 29 94 186 93 186 86 142 86 143 0 7 0 6 28 26
27 26 3 -1 2 -2 -15 -49z m-90 -40 l-17 -26 -68 -112 -67 -111 -67 -127 -67
-127 -11 -7 -11 -7 4 9 4 9 74 145 74 145 55 94 55 95 23 23 23 23 7 0 6 0
-17 -26z m-211 -257 l-35 -62 -16 -32 -17 -33 -8 0 -8 0 15 37 16 38 35 63 35
62 9 -5 9 -6 -35 -62z m-118 -64 l-34 -59 -17 -42 -18 -43 -4 4 -4 4 26 68 25
67 27 33 28 32 3 -2 3 -3 -35 -59z m-591 -141 l-5 -6 -13 13 -12 12 18 -7 18
-6 -6 -6z m557 -179 l-20 -38 -13 -45 -14 -45 -6 30 -5 30 12 15 12 15 22 43
21 44 5 -5 5 -5 -19 -39z m-1631 -262 l-21 -21 0 -12 0 -11 -5 5 -5 5 16 38
15 38 11 -11 10 -10 -21 -21z"/>
<path d="M1375 1880 l6 -10 20 0 20 0 -6 10 -6 10 -20 0 -20 0 6 -10z"/>
<path d="M1245 1860 l-6 -10 16 -6 16 -6 5 5 6 6 -7 10 -6 11 -9 0 -9 0 -6
-10z"/>
<path d="M1058 1853 l13 -5 6 6 6 6 -19 -1 -19 -1 13 -5z"/>
<path d="M1122 1753 l3 -18 23 -3 22 -3 0 8 0 9 -12 12 -12 12 -14 0 -13 0 3
-17z"/>
<path d="M1205 1720 l-7 -11 3 -3 4 -2 28 -12 28 -12 15 0 15 0 -3 23 -3 22
-37 3 -36 3 -7 -11z"/>
<path d="M1145 1700 l6 -10 15 0 15 0 -6 10 -6 10 -15 0 -15 0 6 -10z"/>
<path d="M660 1612 l0 -20 16 -6 15 -6 20 11 20 10 -4 12 -4 12 -31 3 -32 3 0
-19z"/>
<path d="M507 1594 l-7 -7 0 -14 0 -14 23 3 22 3 0 15 0 15 -15 3 -16 3 -7 -7z"/>
<path d="M2414 1535 l-19 -14 15 -1 15 0 14 9 13 9 -9 5 -10 6 -19 -14z"/>
<path d="M440 1477 l0 -13 12 -12 12 -12 14 0 13 0 -3 16 -3 17 -22 8 -23 8 0
-12z"/>
<path d="M2196 1442 l-5 -8 9 -13 8 -14 11 7 11 7 0 15 0 14 -14 0 -15 0 -5
-8z"/>
<path d="M2021 1426 l-12 -15 10 -19 10 -20 25 -6 24 -6 16 6 16 6 0 24 0 23
-19 11 -20 10 -19 0 -20 0 -11 -14z"/>
<path d="M1703 1415 l-21 -14 -5 -20 -5 -20 18 -16 17 -16 59 7 59 7 13 10 12
9 0 10 0 10 -15 -12 -15 -13 -7 7 -7 7 11 18 12 18 -12 12 -11 11 -41 0 -41 0
-21 -15z"/>
<path d="M284 1286 l-6 -17 6 -6 6 -7 12 12 12 12 -12 12 -11 11 -7 -17z"/>
<path d="M1968 1283 l-18 -4 -6 -25 -6 -24 12 -15 12 -15 37 0 37 0 22 16 22
15 0 13 0 14 -12 9 -13 10 -35 5 -35 5 -17 -4z"/>
<path d="M371 1207 l-11 -14 6 -17 7 -17 16 3 16 3 0 24 0 24 -11 4 -11 4 -12
-14z"/>
<path d="M1557 1193 l-7 -6 0 -19 0 -18 19 0 20 0 6 10 7 11 -12 14 -12 15 -8
0 -7 0 -6 -7z"/>
<path d="M266 1152 l-6 -11 11 -6 10 -7 6 6 7 6 -11 11 -11 11 -6 -10z"/>
<path d="M1671 1146 l-13 -15 4 -22 3 -22 28 -21 27 -20 18 17 17 18 -21 37
-22 37 -14 3 -15 3 -12 -15z"/>
<path d="M1897 1133 l-7 -6 0 -9 0 -8 14 0 14 0 12 15 12 15 -19 0 -20 0 -6
-7z"/>
<path d="M1240 1091 l0 -10 16 -15 15 -16 15 0 14 0 0 13 0 13 -12 12 -12 12
-18 0 -18 0 0 -9z"/>
<path d="M287 1047 l-5 -14 8 -13 8 -13 16 6 16 6 0 21 0 20 -19 0 -19 0 -5
-13z"/>
<path d="M1787 978 l-4 -13 9 -17 9 -18 14 0 14 0 6 10 6 10 -11 20 -11 20
-14 0 -13 0 -5 -12z"/>
<path d="M1880 951 l-10 -20 0 -35 0 -35 19 -11 20 -10 30 0 31 0 20 32 19 31
-14 27 -14 28 -16 6 -17 6 -28 0 -29 0 -11 -19z"/>
<path d="M447 933 l-7 -6 0 -14 0 -13 15 0 15 0 0 20 0 20 -8 0 -9 0 -6 -7z"/>
<path d="M1310 896 l0 -14 16 -6 17 -6 5 4 4 5 -5 16 -6 15 -16 0 -15 0 0 -14z"/>
<path d="M790 840 l0 -10 10 0 10 0 0 10 0 10 -10 0 -10 0 0 -10z"/>
<path d="M445 750 l-6 -10 6 -10 7 -11 14 12 14 11 0 9 0 9 -14 0 -15 0 -6
-10z"/>
<path d="M873 733 l-13 -5 0 -28 0 -29 10 -6 11 -7 14 12 15 12 0 18 0 18 -12
9 -13 10 -12 -4z"/>
<path d="M776 721 l-6 -10 9 -5 10 -6 5 9 6 10 -9 5 -10 6 -5 -9z"/>
<path d="M1153 704 l-6 -17 10 -16 10 -16 25 -3 25 -3 7 16 6 16 -10 20 -11
19 -25 0 -25 0 -6 -16z"/>
<path d="M1280 615 l0 -15 10 0 10 0 0 15 0 15 -10 0 -10 0 0 -15z"/>
<path d="M738 586 l-11 -26 6 -6 6 -6 16 5 15 6 0 20 0 20 -10 6 -10 6 -12
-25z"/>
<path d="M2512 459 l3 -22 13 -5 14 -4 -4 23 -3 22 -13 5 -14 4 4 -23z"/>
<path d="M2360 311 l0 -10 10 -6 10 -6 0 15 0 16 -10 0 -10 0 0 -9z"/>
<path d="M2431 277 l-11 -11 0 -14 0 -13 22 3 23 3 3 16 3 16 -14 6 -15 5 -11
-11z"/>
</g>
</svg>
