{
   "name" : "forbidden-lands-henry4k",
   "title" : "Forbidden Lands (henry4k)",
   "version" : "0.0.5",
   "minimumCoreVersion" : "0.7.8",
   "compatibleCoreVersion" : "0.7.999",
   "author" : "henry4k",
   "description" : "",
   "languages" : [
      {
         "lang" : "en",
         "name" : "English",
         "path" : "lang/en.json"
      }
   ],
   "media" : [
      {
         "type" : "cover",
         "link" : "https://gitlab.com/henry4k/foundryvtt-forbidden-lands/-/raw/master/preview.png"
      },
      {
         "type" : "screenshot",
         "link" : "https://gitlab.com/henry4k/foundryvtt-forbidden-lands/-/raw/master/preview.png"
      },
      {
         "type" : "screenshot",
         "link" : "https://gitlab.com/henry4k/foundryvtt-forbidden-lands/-/raw/master/preview.png"
      }
   ],
   "packs" : [],
   "scripts" : ["script.js"],
   "styles" : ["style.css"],
   "url" : "https://gitlab.com/henry4k/foundryvtt-forbidden-lands",
   "manifest" : "https://gitlab.com/henry4k/foundryvtt-forbidden-lands/-/raw/master/system.json",
   "download" : "https://gitlab.com/henry4k/foundryvtt-forbidden-lands/-/jobs/artifacts/v0.0.5/download?job=build",
   "bugs" : "https://gitlab.com/henry4k/foundryvtt-forbidden-lands/-/issues",
   "readme" : "https://gitlab.com/henry4k/foundryvtt-forbidden-lands/-/raw/master/README.md"
}
