<?xml version="1.0" standalone="no"?>
<!DOCTYPE svg PUBLIC "-//W3C//DTD SVG 20010904//EN"
 "http://www.w3.org/TR/2001/REC-SVG-20010904/DTD/svg10.dtd">
<svg version="1.0" xmlns="http://www.w3.org/2000/svg"
 width="180.000000pt" height="219.000000pt" viewBox="0 0 180.000000 219.000000"
 preserveAspectRatio="xMidYMid meet">
<metadata>
Created by potrace 1.16, written by Peter Selinger 2001-2019
</metadata>
<g transform="translate(0.000000,219.000000) scale(0.100000,-0.100000)"
fill="#000000" stroke="none">
<path d="M1072 2164 l-22 -15 0 -11 0 -12 -57 -57 -58 -58 -18 -18 -18 -18
-34 -35 -35 -35 -5 -15 -5 -15 -27 -12 -27 -13 -15 0 -16 0 -45 16 -44 15 -13
-17 -13 -17 -6 -36 -7 -36 -29 -62 -29 -61 -15 -6 -15 -6 3 -12 3 -13 -24 -38
-23 -38 0 -33 0 -34 10 -18 10 -19 3 -46 3 -45 -6 -9 -6 -10 6 -145 5 -145 1
-80 1 -80 -8 -25 -8 -25 -25 -18 -25 -18 -77 44 -77 45 -38 10 -37 10 -31 -8
-31 -9 -27 -17 -26 -17 -17 -21 -17 -21 -26 -68 -27 -68 4 -69 4 -69 43 -86
44 -86 28 -20 29 -20 52 -10 53 -10 44 1 43 1 39 -21 40 -20 14 0 15 0 63 -25
63 -25 51 -45 51 -45 11 0 11 0 0 -10 0 -10 58 -27 57 -26 43 -19 43 -20 90
15 89 15 42 22 43 22 81 82 81 81 28 50 27 50 24 28 24 29 0 14 0 14 8 0 8 0
1 18 1 17 6 145 6 145 4 51 4 51 11 21 11 21 0 68 0 69 13 51 14 52 -3 31 -4
30 9 0 9 0 12 33 12 32 19 47 19 46 -2 24 -2 24 46 60 46 59 40 43 41 44 9 28
10 27 -8 13 -8 13 -66 8 -65 8 -38 19 -38 20 -24 -10 -25 -9 -45 7 -46 7 -20
2 -20 2 -20 2 -20 1 29 19 30 20 12 22 12 22 -15 35 -14 35 -14 13 -14 14 -7
0 -7 0 -51 53 -52 52 -34 24 -35 24 -39 48 -39 49 -6 0 -7 0 -22 -16z m129
-199 l54 -51 48 -33 49 -33 -29 -18 -28 -17 -94 -91 -94 -91 -26 14 -27 13
-13 25 -13 25 -25 13 -26 14 -48 54 -49 55 0 11 0 12 48 45 47 46 58 66 59 67
27 -38 28 -38 54 -50z m-511 -171 l0 -24 8 0 9 0 18 20 18 20 11 0 10 0 -12
-12 -12 -12 0 -18 0 -18 14 0 14 0 12 15 12 15 13 0 13 0 57 -52 57 -52 -11
-4 -12 -4 -70 18 -69 18 -14 -20 -15 -19 42 -8 42 -8 79 -6 80 -5 43 -36 43
-36 6 -18 5 -17 20 -6 19 -6 31 25 31 26 43 0 44 0 26 -10 26 -10 -3 -12 -2
-13 22 -42 22 -42 0 -6 0 -5 -10 0 -10 0 -12 25 -11 25 -11 0 -11 0 -12 -28
-13 -27 10 -37 10 -36 15 -12 15 -12 0 -25 0 -25 -15 12 -15 12 0 13 0 13 -15
12 -15 12 -1 -13 -1 -14 2 -15 2 -15 14 -29 14 -30 -8 -8 -9 -9 -13 16 -12 15
-9 0 -9 0 0 -25 0 -26 24 -24 24 -24 -6 -5 -5 -6 -18 0 -18 0 -15 22 -16 22
-6 -7 -7 -6 13 -31 13 -30 30 -26 30 -25 -7 -6 -6 -6 -44 17 -44 17 -17 19
-18 20 -9 0 -8 0 0 -12 0 -12 27 -28 27 -28 -11 -11 -12 -12 -33 21 -33 21
-34 35 -35 36 -8 0 -8 0 0 -20 0 -19 30 -34 30 -35 0 -6 0 -7 -22 15 -22 16
-16 0 -16 0 -42 31 -43 31 -15 29 -15 29 -10 0 -11 0 7 -47 7 -48 -27 25 -27
25 -14 28 -15 27 -10 0 -11 0 7 -37 7 -37 -17 14 -16 14 -15 28 -15 28 -10 0
-11 0 -5 -20 -5 -20 -10 0 -9 0 -16 38 -15 37 5 70 6 70 26 70 26 69 13 57 14
57 -7 11 -7 11 -12 -22 -11 -23 -34 -75 -35 -75 -11 -53 -11 -53 0 -47 0 -47
10 -45 10 -45 21 -47 22 -47 31 -11 31 -12 49 -19 49 -19 13 0 13 0 3 -42 3
-41 14 -5 13 -4 -4 34 -4 35 41 -15 40 -16 24 -20 24 -21 -6 18 -6 17 13 0 14
0 12 -15 12 -15 22 1 21 1 -12 5 -13 5 0 9 0 9 32 0 32 0 43 -42 43 -42 0 13
0 13 -21 29 -20 29 18 -7 18 -6 27 -29 27 -28 11 0 12 0 -27 31 -26 32 5 4 5
5 51 -11 52 -11 8 5 9 5 -10 33 -10 32 0 87 1 87 16 41 16 40 13 0 12 0 7 38
6 37 0 32 0 32 21 41 21 40 36 30 36 29 -5 5 -5 5 -27 -14 -27 -14 0 9 0 9 22
15 22 16 -5 2 -4 3 -32 18 -31 17 -27 0 -27 0 -71 22 -70 21 22 18 22 18 13
-5 12 -5 19 21 18 20 14 0 13 0 -6 -25 -6 -25 14 0 14 0 22 20 21 20 16 0 15
0 -16 -26 -17 -25 11 -11 11 -11 40 26 39 26 6 -6 6 -7 -22 -23 -21 -23 6 -6
5 -6 20 7 20 6 35 23 35 24 13 -9 14 -9 -16 -10 -16 -9 -24 -20 -24 -20 15 -1
15 0 40 25 40 24 9 1 8 0 -31 -36 -32 -35 -23 -37 -23 -37 -5 -40 -6 -41 -31
-51 -32 -51 6 -25 6 -24 -22 -38 -23 -39 -9 -60 -9 -61 -3 -25 -3 -25 -2 -20
-2 -20 -5 13 -5 12 -9 0 -9 0 0 -22 1 -23 13 -30 12 -30 -4 -23 -5 -24 -23 6
-23 6 -6 -10 -6 -10 25 -46 26 -47 0 -29 0 -30 -15 12 -15 13 -7 -7 -7 -7 13
-34 12 -35 -10 -32 -10 -33 -11 -45 -12 -45 -16 -35 -16 -35 -32 -51 -32 -50
-24 -21 -23 -21 -77 -71 -77 -71 -19 0 -18 0 -41 30 -42 31 -21 44 -22 45 -9
0 -9 0 0 -37 1 -38 14 -38 13 -39 -35 7 -35 6 -34 16 -34 17 0 8 0 8 -38 40
-39 39 -15 48 -15 48 -14 0 -14 0 3 -35 3 -35 5 -25 6 -25 -27 25 -27 25 -18
35 -17 35 -7 28 -6 27 -10 0 -10 0 1 -12 0 -13 8 -48 8 -47 -4 0 -3 0 -39 26
-40 26 -15 33 -16 33 0 21 0 21 -11 0 -12 0 6 -48 6 -47 6 -17 7 -17 -62 57
-62 58 -6 32 -7 33 -10 -1 -10 0 1 -43 0 -42 9 -19 8 -19 -31 23 -32 24 -26
38 -26 38 -7 30 -6 31 -10 2 -10 2 -3 -32 -3 -32 10 -37 10 -38 -4 -4 -5 -5
-26 29 -26 29 -19 70 -18 70 0 33 -1 33 35 54 34 54 26 17 27 17 51 -13 52
-13 70 -29 70 -29 55 -16 55 -15 23 -5 22 -5 0 10 0 11 -29 17 -29 17 3 31 3
31 12 45 12 45 1 95 1 95 -18 38 -17 38 10 77 10 77 1 55 0 55 2 16 1 16 19
-5 18 -4 0 10 0 10 -19 23 -19 23 11 29 10 29 22 -28 23 -29 7 7 6 6 -21 42
-22 42 7 27 7 26 20 -48 21 -47 9 0 9 0 -6 38 -6 37 -11 48 -10 48 5 5 5 5 6
-35 7 -34 16 -13 16 -14 -6 30 -6 30 -7 47 -6 47 6 10 7 10 14 -6 15 -5 0 -24z"/>
<path d="M900 1456 l0 -25 10 -6 10 -6 0 25 0 25 -10 6 -10 6 0 -25z"/>
<path d="M1200 1406 l0 -15 11 -6 10 -7 5 5 4 4 -6 17 -6 16 -9 0 -9 0 0 -14z"/>
<path d="M1060 1338 l0 -24 30 -47 30 -47 10 0 10 0 0 10 0 10 -30 42 -30 41
0 13 0 13 -10 6 -10 6 0 -23z"/>
<path d="M680 1281 l0 -40 11 -6 10 -7 4 4 4 3 -6 43 -6 42 -8 0 -9 0 0 -39z"/>
<path d="M996 1312 l-7 -12 12 -22 12 -23 4 11 4 11 -9 23 -9 23 -7 -11z"/>
<path d="M760 1286 l0 -15 11 -6 10 -7 5 5 4 4 -6 17 -6 16 -9 0 -9 0 0 -14z"/>
<path d="M1182 1278 l4 -12 12 -4 12 -4 -6 16 -6 16 -10 0 -10 0 4 -12z"/>
<path d="M645 930 l-6 -10 10 0 11 0 0 10 0 10 -4 0 -5 0 -6 -10z"/>
<path d="M636 875 l-5 -15 9 0 10 0 0 15 0 15 -4 0 -4 0 -6 -15z"/>
<path d="M701 853 l-11 -38 0 -7 0 -8 14 0 14 0 6 16 6 16 0 29 0 29 -10 0 -9
0 -10 -37z"/>
<path d="M766 759 l-7 -41 -15 -30 -16 -30 -34 7 -35 6 -15 6 -14 5 0 -14 0
-14 50 -21 50 -21 0 -16 0 -16 14 0 15 0 6 10 6 9 25 -9 25 -10 52 0 52 0 53
-7 53 -6 -33 -19 -33 -20 -36 -39 -36 -39 -12 -61 -12 -62 10 -10 10 -10 6 19
6 19 29 62 30 63 41 30 42 30 52 0 52 0 11 -25 12 -26 0 -28 0 -28 -6 -45 -6
-45 -34 -37 -33 -36 -25 0 -25 0 -6 10 -7 11 7 50 7 49 19 23 19 22 9 -14 9
-14 -5 -16 -6 -16 -26 -21 -25 -22 13 -16 13 -16 13 0 13 0 22 18 22 18 9 49
9 48 -15 24 -15 23 -39 0 -38 0 -25 -20 -25 -19 -18 -46 -17 -46 7 -75 7 -74
26 -21 27 -21 28 6 28 6 24 17 24 18 11 20 11 20 13 24 14 24 9 6 8 6 33 43
34 43 24 59 24 60 0 80 0 81 -10 20 -11 19 -10 0 -11 0 7 -32 7 -32 0 -40 -1
-41 -14 -40 -15 -40 -5 25 -4 25 -1 34 -1 34 -16 23 -15 24 -10 0 -10 0 6 -41
7 -41 -20 11 -21 10 -6 26 -6 25 -10 0 -10 0 0 -15 0 -15 -25 0 -25 0 3 11 2
12 -12 4 -13 5 0 -10 0 -9 -27 4 -28 4 -22 5 -23 4 0 20 0 19 -9 5 -9 6 -6
-25 -6 -25 -16 0 -16 0 7 41 7 42 -11 -7 -11 -7 0 -12 0 -13 -15 -21 -16 -22
-14 5 -14 6 10 25 9 24 0 30 0 29 -9 0 -9 0 -13 -37 -12 -38 -10 -12 -9 -13
-8 0 -8 0 14 38 13 37 1 38 0 37 -14 0 -13 0 -7 -41z"/>
<path d="M600 579 l0 -10 10 6 10 6 0 5 0 4 -10 0 -10 0 0 -11z"/>
<path d="M775 499 l-7 -21 10 -10 10 -10 16 23 16 23 0 8 0 8 -19 0 -20 0 -6
-21z"/>
<path d="M690 475 l0 -15 10 0 10 0 0 15 0 15 -10 0 -10 0 0 -15z"/>
</g>
</svg>
