<?xml version="1.0" standalone="no"?>
<!DOCTYPE svg PUBLIC "-//W3C//DTD SVG 20010904//EN"
 "http://www.w3.org/TR/2001/REC-SVG-20010904/DTD/svg10.dtd">
<svg version="1.0" xmlns="http://www.w3.org/2000/svg"
 width="117.000000pt" height="227.000000pt" viewBox="0 0 117.000000 227.000000"
 preserveAspectRatio="xMidYMid meet">
<metadata>
Created by potrace 1.16, written by Peter Selinger 2001-2019
</metadata>
<g transform="translate(0.000000,227.000000) scale(0.100000,-0.100000)"
fill="#000000" stroke="none">
<path d="M643 2163 l-88 -98 -108 -105 -109 -104 -26 -49 -27 -50 -12 -21 -13
-21 0 -40 0 -40 -25 -37 -25 -37 0 -36 0 -36 -15 -29 -15 -29 -11 -53 -12 -53
-33 -67 -33 -66 -37 -88 -36 -89 5 -63 5 -63 63 -92 64 -92 -2 -63 -1 -63 -16
-18 -16 -18 0 -11 0 -12 -23 0 -23 0 -22 -16 -22 -15 -10 -19 -10 -19 16 -40
16 -40 31 -24 32 -24 53 -27 53 -27 79 2 78 2 11 24 11 24 0 23 0 23 -18 16
-19 17 -37 0 -37 0 -36 15 -37 16 -18 16 -18 17 -10 -10 -9 -9 12 -16 12 -16
35 -22 35 -21 28 0 28 0 -6 -10 -6 -10 -26 0 -27 0 -43 21 -44 21 -6 -6 -7 -6
-32 31 -32 31 5 19 5 19 19 0 19 0 5 -2 5 -3 29 50 29 51 13 42 12 43 -17 57
-18 57 -44 57 -44 57 -11 55 -12 55 18 68 18 68 39 83 38 83 54 160 54 160 37
56 36 55 11 52 11 52 41 17 41 17 7 0 7 0 48 -48 48 -47 40 -33 40 -33 -20 7
-20 7 -45 30 -45 30 -22 20 -22 19 -12 -4 -12 -4 37 -41 37 -42 47 -29 47 -30
55 -18 55 -17 17 -14 17 -15 12 8 13 8 43 -3 44 -3 30 -8 30 -9 23 9 22 8 16
-9 17 -9 5 9 6 9 -37 31 -38 31 -17 0 -18 0 -15 -24 -16 -23 -34 15 -34 16 12
16 12 17 37 41 38 42 15 -6 15 -6 0 -12 0 -11 29 -16 29 -17 36 -61 36 -62 0
-16 0 -16 -25 -44 -26 -43 -8 0 -9 0 -5 -14 -5 -14 15 2 16 1 4 -11 4 -12 -16
-16 -17 -16 -11 7 -10 6 6 -16 6 -16 -27 -20 -27 -20 18 -1 17 0 0 -11 0 -11
-20 -5 -21 -5 6 -18 5 -17 -20 -49 -21 -49 -36 -75 -36 -75 -36 -37 -35 -38
17 0 16 0 -5 -15 -6 -15 -14 0 -13 0 -12 -22 -11 -21 15 6 16 6 -6 -15 -5 -14
-18 0 -19 0 -6 -10 -6 -10 15 0 16 0 0 -7 0 -8 -8 -13 -9 -13 -16 7 -17 6 0
-15 0 -15 13 -5 12 -5 -18 -1 -19 -1 5 -12 4 -13 -26 -23 -26 -22 -98 -31 -98
-32 -30 -28 -31 -29 -10 0 -9 0 6 -20 6 -20 -15 0 -16 0 0 -10 0 -10 13 0 12
0 -15 -10 -15 -10 -32 6 -33 6 0 -12 0 -12 -30 6 -30 6 0 -15 0 -14 33 -25 34
-26 34 0 34 1 20 17 20 17 33 51 32 51 18 15 17 15 35 6 35 5 65 31 66 30 26
21 26 20 49 83 49 82 51 105 51 105 55 115 55 115 37 90 37 90 16 19 17 18 -1
57 0 56 -23 45 -23 45 -54 53 -55 52 -14 0 -15 0 0 8 1 7 54 44 53 44 -5 13
-5 13 -19 6 -19 6 2 7 2 7 -12 22 -12 21 -50 37 -50 37 0 13 0 14 -27 18 -26
18 -53 53 -52 52 -10 0 -11 0 -88 -97z m205 -110 l107 -98 3 -13 4 -13 -83
-82 -82 -82 -25 -17 -25 -16 -98 91 -98 91 -6 14 -5 14 21 26 21 27 75 78 75
77 5 0 4 0 107 -97z"/>
<path d="M391 1668 l-10 -33 -6 -37 -7 -37 -19 -17 -19 -17 0 -18 0 -18 -11
-25 -12 -25 17 -26 18 -27 -4 -2 -3 -3 -30 -10 -30 -9 -16 -45 -15 -44 -11
-25 -11 -25 3 -3 4 -4 38 12 38 13 15 5 15 6 -32 4 -33 3 0 9 0 8 6 16 6 15
13 -6 14 -5 12 8 12 7 -24 13 -24 12 28 13 27 12 0 8 0 8 55 16 55 16 0 9 0
10 -14 0 -15 0 -6 -10 -6 -10 -21 0 -21 0 -13 18 -13 17 -1 8 0 7 33 0 32 1
-18 13 -19 14 17 64 18 63 4 28 5 27 10 0 9 0 18 -10 18 -9 -4 -26 -5 -25 11
0 11 0 0 25 0 25 10 0 11 0 34 -14 35 -15 0 13 0 12 -65 27 -65 27 -19 0 -19
0 -11 -32z"/>
<path d="M710 1558 l0 -8 25 -12 25 -11 6 -19 6 -20 -21 -22 -21 -22 6 -7 7
-6 26 17 26 18 29 12 28 13 24 -16 24 -15 0 -15 0 -14 -32 -30 -33 -31 11 0
12 0 28 15 28 14 4 -4 5 -4 -17 -26 -17 -25 -35 -23 -34 -22 5 -22 5 -22 -36
-28 -36 -27 11 -4 12 -4 14 12 15 12 0 -10 0 -11 -27 -13 -27 -13 -4 -13 -4
-14 18 2 19 2 9 -1 9 -1 -18 -20 -18 -20 5 0 6 0 36 15 37 16 6 29 6 30 8 0 9
0 0 21 0 21 34 56 34 57 6 57 6 56 6 19 6 18 -21 -23 -20 -23 -9 32 -8 33 -29
8 -30 9 -32 -5 -33 -5 0 13 0 12 -40 11 -40 10 0 -9z"/>
<path d="M590 1270 l0 -10 10 0 10 0 0 10 0 10 -10 0 -10 0 0 -10z"/>
<path d="M590 1205 l0 -15 10 0 10 0 0 15 0 15 -10 0 -10 0 0 -15z"/>
<path d="M246 1181 l-19 -7 30 -22 31 -22 13 0 13 0 40 -27 41 -26 25 -17 26
-17 39 -7 40 -7 23 0 24 -1 19 -19 19 -19 18 1 17 0 20 8 19 8 -25 6 -25 6
-13 24 -12 23 -1 32 -1 33 -9 5 -8 5 0 -20 0 -21 -17 -19 -17 -20 -8 5 -8 5 0
25 0 26 -12 -4 -13 -5 -3 -21 -3 -22 -15 0 -14 0 0 15 0 15 -36 0 -36 0 -31
18 -32 17 -13 13 -13 12 -16 0 -16 0 -11 14 -11 14 -19 -7z"/>
<path d="M675 1160 l6 -10 5 0 4 0 0 10 0 10 -11 0 -10 0 6 -10z"/>
<path d="M672 1093 l3 -18 15 0 15 0 0 15 0 15 -18 3 -19 4 4 -19z"/>
<path d="M688 964 l-6 -6 -14 -2 -13 -3 -45 -22 -45 -21 36 3 37 3 10 -34 11
-34 -6 -14 -5 -14 -9 0 -9 0 0 10 0 11 -22 8 -23 9 -12 -10 -13 -10 0 -17 0
-18 -22 -20 -23 -21 -22 -7 -23 -6 0 -9 0 -8 23 -6 22 -6 33 0 33 0 29 15 30
16 2 12 1 12 1 12 1 11 17 19 17 18 29 60 30 60 -5 7 -4 8 -18 0 -18 0 -5 -6z"/>
<path d="M430 900 l0 -10 11 0 10 0 -6 10 -6 10 -5 0 -4 0 0 -10z"/>
<path d="M454 815 l-7 -17 14 -9 14 -9 10 3 10 4 0 19 0 19 -18 3 -17 3 -6
-16z"/>
<path d="M374 675 l-19 -14 -17 -1 -18 0 -4 -22 -5 -23 -6 -40 -6 -40 28 30
29 30 32 48 31 47 -12 0 -13 0 -20 -15z"/>
<path d="M627 374 l-6 -7 5 -8 5 -9 19 0 18 0 6 -16 6 -15 9 6 10 6 17 -26 16
-25 -5 -14 -5 -14 10 -10 10 -10 -11 -7 -11 -6 -21 6 -20 7 11 13 11 13 -12 7
-11 8 -8 -12 -7 -12 -11 13 -11 14 -11 28 -11 29 -10 -10 -10 -10 7 -27 6 -27
32 -31 31 -31 -28 5 -27 5 0 -12 0 -12 23 -12 22 -11 -42 5 -43 5 0 -9 0 -10
18 -10 17 -10 -37 -1 -38 0 0 -8 0 -8 13 -13 12 -12 -19 7 -18 7 -8 -13 -8
-12 -40 36 -40 36 -6 27 -7 26 23 24 23 25 47 24 47 24 6 10 7 11 -4 5 -5 4
-69 -35 -69 -35 -23 -18 -24 -18 -4 -35 -5 -34 32 -49 32 -48 31 -19 31 -19
22 -6 22 -6 58 36 58 36 44 55 44 55 8 0 8 0 15 28 14 27 -20 43 -21 43 -36
25 -36 24 -21 0 -21 0 -6 -6z"/>
<path d="M120 285 l0 -15 -11 0 -10 0 3 -37 3 -38 22 -3 21 -3 7 30 6 30 -16
25 -17 26 -4 0 -4 0 0 -15z"/>
<path d="M690 290 l0 -10 10 0 10 0 0 10 0 10 -10 0 -10 0 0 -10z"/>
<path d="M171 235 l-9 -35 11 -35 10 -35 18 0 18 0 11 21 11 20 -16 44 -17 44
-14 5 -13 5 -10 -34z"/>
<path d="M496 231 l-6 -9 14 -11 13 -11 6 7 7 6 0 14 0 13 -14 0 -15 0 -5 -9z"/>
<path d="M540 210 l0 -10 15 0 15 0 0 10 0 10 -15 0 -15 0 0 -10z"/>
<path d="M442 181 l4 -12 7 0 7 1 1 7 1 8 -12 4 -12 4 4 -12z"/>
<path d="M480 164 l0 -15 10 6 10 6 0 10 0 9 -10 0 -10 0 0 -16z"/>
<path d="M535 169 l-7 -10 6 -6 6 -7 11 11 11 11 -10 6 -11 6 -6 -11z"/>
<path d="M482 119 l4 -10 9 0 10 0 3 10 4 11 -17 0 -17 0 4 -11z"/>
</g>
</svg>
