<?xml version="1.0" standalone="no"?>
<!DOCTYPE svg PUBLIC "-//W3C//DTD SVG 20010904//EN"
 "http://www.w3.org/TR/2001/REC-SVG-20010904/DTD/svg10.dtd">
<svg version="1.0" xmlns="http://www.w3.org/2000/svg"
 width="65.000000pt" height="89.000000pt" viewBox="0 0 65.000000 89.000000"
 preserveAspectRatio="xMidYMid meet">
<metadata>
Created by potrace 1.16, written by Peter Selinger 2001-2019
</metadata>
<g transform="translate(0.000000,89.000000) scale(0.100000,-0.100000)"
fill="#000000" stroke="none">
<path d="M444 765 l-19 -35 -10 3 -10 4 3 21 3 22 -10 0 -11 0 0 -16 0 -15
-21 6 -21 7 -12 2 -11 2 -14 9 -15 9 -4 -12 -3 -11 -15 6 -14 5 -6 -16 -6 -17
-37 -18 -36 -19 -51 -54 -51 -54 -13 -39 -13 -40 -13 -8 -14 -8 0 -20 0 -20
10 6 10 6 0 -24 0 -24 15 -43 15 -43 -10 -13 -11 -12 11 -7 10 -6 8 4 7 5 22
-34 22 -34 -9 0 -10 0 0 -20 0 -20 14 0 14 0 11 14 12 14 17 -5 17 -4 18 -35
17 -35 0 -19 0 -19 16 -15 15 -16 54 0 54 0 24 9 25 10 7 60 7 61 14 0 14 0 0
15 0 16 30 -16 29 -15 11 0 10 0 0 14 0 15 -20 14 -21 14 35 52 35 51 7 47 7
48 -11 50 -10 50 24 18 24 19 0 14 0 14 -13 0 -13 0 -21 -15 -21 -15 -6 16 -6
16 0 4 0 4 15 0 15 0 0 9 0 9 -19 -5 -20 -5 -35 28 -35 28 15 34 14 34 0 9 0
9 -8 0 -9 0 -19 -35z m-46 -89 l47 -24 20 -24 20 -23 13 -23 13 -24 6 -48 6
-48 -16 -46 -16 -46 -72 -70 -72 -70 6 -27 6 -28 6 -17 7 -18 -30 0 -30 0 -16
6 -16 6 0 15 0 14 -15 29 -15 29 -47 13 -48 14 -18 38 -19 39 -8 54 -9 53 6
53 6 52 26 33 26 32 40 27 40 27 40 12 40 13 13 0 13 1 47 -24z"/>
<path d="M577 705 l-6 -14 9 -6 8 -5 16 6 16 6 0 14 0 14 -19 0 -19 0 -5 -15z"/>
</g>
</svg>
