<?xml version="1.0" standalone="no"?>
<!DOCTYPE svg PUBLIC "-//W3C//DTD SVG 20010904//EN"
 "http://www.w3.org/TR/2001/REC-SVG-20010904/DTD/svg10.dtd">
<svg version="1.0" xmlns="http://www.w3.org/2000/svg"
 width="65.000000pt" height="89.000000pt" viewBox="0 0 65.000000 89.000000"
 preserveAspectRatio="xMidYMid meet">
<metadata>
Created by potrace 1.16, written by Peter Selinger 2001-2019
</metadata>
<g transform="translate(0.000000,89.000000) scale(0.100000,-0.100000)"
fill="#000000" stroke="none">
<path d="M260 771 l-25 -8 -57 -37 -58 -36 -24 -53 -24 -52 5 -148 6 -148 19
-24 19 -25 47 -13 47 -14 3 -41 3 -40 12 -10 12 -10 78 -4 77 -5 17 12 17 13
6 53 5 53 41 31 41 30 27 50 26 50 3 95 2 95 -26 47 -27 47 15 21 15 22 -11
11 -11 11 -25 -14 -25 -13 -18 16 -19 17 -49 11 -49 11 -35 3 -35 4 -25 -8z
m137 -83 l63 -13 25 -26 26 -26 10 -72 10 -72 -10 -57 -10 -57 -8 -34 -8 -34
-52 -26 -51 -26 -11 -23 -11 -23 0 -24 0 -25 -27 1 -28 0 -15 7 -15 7 -2 29
-2 28 -15 22 -14 22 -52 25 -52 24 -20 39 -20 38 7 95 7 94 28 27 27 27 4 10
4 10 35 28 35 28 40 -5 40 -5 62 -13z"/>
</g>
</svg>
