<?xml version="1.0" standalone="no"?>
<!DOCTYPE svg PUBLIC "-//W3C//DTD SVG 20010904//EN"
 "http://www.w3.org/TR/2001/REC-SVG-20010904/DTD/svg10.dtd">
<svg version="1.0" xmlns="http://www.w3.org/2000/svg"
 width="65.000000pt" height="89.000000pt" viewBox="0 0 65.000000 89.000000"
 preserveAspectRatio="xMidYMid meet">
<metadata>
Created by potrace 1.16, written by Peter Selinger 2001-2019
</metadata>
<g transform="translate(0.000000,89.000000) scale(0.100000,-0.100000)"
fill="#000000" stroke="none">
<path d="M266 872 l-5 -8 5 -44 5 -44 10 -17 9 -18 -11 -6 -10 -7 -6 6 -6 5
-11 63 -12 63 -19 -3 -20 -4 -5 -4 -4 -5 13 -32 12 -32 14 -43 13 -43 -31 -20
-32 -19 -17 21 -17 21 -11 -7 -10 -6 16 -30 15 -31 -24 -37 -24 -36 -20 -40
-20 -40 -6 -32 -6 -32 14 -48 14 -48 30 -62 31 -63 37 -17 38 -18 3 -30 4 -30
15 -17 16 -18 17 0 17 0 -5 -26 -5 -27 12 7 11 7 0 15 0 14 4 0 3 0 53 10 53
10 12 -10 12 -10 13 15 13 16 -10 42 -10 42 -7 16 -7 16 69 59 69 59 19 11 19
11 -2 96 -2 95 -22 44 -22 43 -58 57 -58 56 -54 12 -54 12 -11 32 -12 32 0 32
0 32 -19 0 -20 0 -5 -8z"/>
</g>
</svg>
