<?xml version="1.0" standalone="no"?>
<!DOCTYPE svg PUBLIC "-//W3C//DTD SVG 20010904//EN"
 "http://www.w3.org/TR/2001/REC-SVG-20010904/DTD/svg10.dtd">
<svg version="1.0" xmlns="http://www.w3.org/2000/svg"
 width="65.000000pt" height="89.000000pt" viewBox="0 0 65.000000 89.000000"
 preserveAspectRatio="xMidYMid meet">
<metadata>
Created by potrace 1.16, written by Peter Selinger 2001-2019
</metadata>
<g transform="translate(0.000000,89.000000) scale(0.100000,-0.100000)"
fill="#000000" stroke="none">
<path d="M270 791 l0 -20 -12 -7 -12 -8 -4 12 -4 12 -10 0 -10 0 6 -31 6 -31
-22 -18 -22 -18 -12 17 -12 16 -8 -7 -7 -8 11 -13 12 -14 -25 -23 -25 -23 0
-13 0 -13 -17 6 -18 7 13 -16 13 -17 -10 -38 -10 -38 -7 -50 -6 -50 0 -5 1 -5
-22 -9 -22 -9 18 -4 17 -4 0 -21 0 -20 -15 6 -15 5 0 -14 0 -15 9 0 9 0 56
-53 57 -53 -12 -27 -12 -27 7 -7 7 -8 19 25 19 25 7 -8 8 -8 11 -32 10 -32 75
-7 74 -8 12 13 11 12 17 46 17 47 45 17 45 17 25 -23 24 -22 6 6 7 6 -16 24
-15 24 9 14 9 14 20 -25 20 -25 0 10 0 11 -15 21 -15 22 11 71 11 71 -10 29
-10 28 14 6 14 5 0 12 0 11 -15 -12 -15 -13 -4 4 -3 4 -32 57 -31 57 0 8 0 9
49 29 50 29 -5 8 -6 9 -53 -30 -54 -31 -6 9 -5 10 10 6 10 6 0 10 0 9 -25 -6
-25 -6 0 26 0 26 -8 0 -8 0 -10 -8 -9 -8 -70 4 -71 3 4 35 4 34 -11 0 -11 0 0
-19z"/>
</g>
</svg>
