<?xml version="1.0" standalone="no"?>
<!DOCTYPE svg PUBLIC "-//W3C//DTD SVG 20010904//EN"
 "http://www.w3.org/TR/2001/REC-SVG-20010904/DTD/svg10.dtd">
<svg version="1.0" xmlns="http://www.w3.org/2000/svg"
 width="65.000000pt" height="89.000000pt" viewBox="0 0 65.000000 89.000000"
 preserveAspectRatio="xMidYMid meet">
<metadata>
Created by potrace 1.16, written by Peter Selinger 2001-2019
</metadata>
<g transform="translate(0.000000,89.000000) scale(0.100000,-0.100000)"
fill="#000000" stroke="none">
<path d="M270 755 l-25 -14 -18 -1 -19 0 -38 -27 -38 -28 -23 -33 -22 -33 -8
-47 -8 -47 0 -57 -1 -58 31 -27 31 -28 10 -19 10 -19 -16 -9 -16 -9 0 -16 0
-16 19 17 20 18 10 -6 10 -7 -19 -32 -20 -32 0 -20 1 -20 27 32 27 32 22 -17
22 -17 7 -43 7 -44 14 -5 15 -6 56 13 57 12 13 10 12 10 0 42 0 42 77 55 78
55 12 109 12 110 -6 42 -5 42 -19 17 -18 17 20 29 21 29 -6 7 -7 6 -25 -25
-25 -26 -86 29 -86 28 -31 0 -31 -1 -25 -14z m170 -76 l35 -18 35 -33 35 -32
1 -76 1 -75 -13 -25 -13 -25 -33 -23 -33 -23 -42 -30 -42 -30 -3 -47 -3 -46
-32 -7 -33 -6 0 31 0 32 -40 30 -39 29 -44 60 -44 60 7 88 8 87 27 36 27 35
22 10 21 9 60 9 60 8 20 -5 20 -5 35 -18z"/>
</g>
</svg>
