<?xml version="1.0" standalone="no"?>
<!DOCTYPE svg PUBLIC "-//W3C//DTD SVG 20010904//EN"
 "http://www.w3.org/TR/2001/REC-SVG-20010904/DTD/svg10.dtd">
<svg version="1.0" xmlns="http://www.w3.org/2000/svg"
 width="65.000000pt" height="89.000000pt" viewBox="0 0 65.000000 89.000000"
 preserveAspectRatio="xMidYMid meet">
<metadata>
Created by potrace 1.16, written by Peter Selinger 2001-2019
</metadata>
<g transform="translate(0.000000,89.000000) scale(0.100000,-0.100000)"
fill="#000000" stroke="none">
<path d="M286 785 l-48 -14 -27 -24 -26 -25 -31 -15 -31 -16 -28 -36 -28 -37
-13 -44 -13 -45 9 -67 10 -67 8 -40 9 -40 16 -32 17 -32 30 -18 30 -17 1 -16
1 -15 -1 -25 -2 -25 14 -19 14 -18 70 -5 70 -5 21 11 21 11 3 48 3 47 38 -3
37 -3 0 7 0 7 -15 11 -15 11 9 13 8 13 36 -21 37 -22 11 4 12 4 -30 33 -29 34
40 37 40 38 32 -24 31 -24 -5 25 -4 26 -19 10 -19 10 0 19 0 20 25 -10 25 -10
0 10 0 10 -20 17 -20 17 0 30 0 29 -37 73 -36 74 -64 65 -63 65 -27 -1 -28 -1
-49 -13z m113 -86 l40 -40 23 -47 23 -47 3 -72 4 -71 -12 -36 -11 -35 -57 -38
-57 -37 -22 -25 -23 -24 0 -33 0 -34 -35 0 -35 0 0 35 0 34 -27 26 -28 25 -21
0 -22 0 -10 27 -10 28 -13 67 -13 68 18 56 18 56 45 62 45 61 16 9 17 10 35 7
35 7 18 1 17 1 39 -41z"/>
</g>
</svg>
