<?xml version="1.0" standalone="no"?>
<!DOCTYPE svg PUBLIC "-//W3C//DTD SVG 20010904//EN"
 "http://www.w3.org/TR/2001/REC-SVG-20010904/DTD/svg10.dtd">
<svg version="1.0" xmlns="http://www.w3.org/2000/svg"
 width="65.000000pt" height="89.000000pt" viewBox="0 0 65.000000 89.000000"
 preserveAspectRatio="xMidYMid meet">
<metadata>
Created by potrace 1.16, written by Peter Selinger 2001-2019
</metadata>
<g transform="translate(0.000000,89.000000) scale(0.100000,-0.100000)"
fill="#000000" stroke="none">
<path d="M447 789 l-25 -32 -11 7 -12 8 3 15 3 16 -12 4 -11 4 -7 -20 -6 -21
-17 -1 -17 -1 -10 -2 -10 -1 -45 -31 -45 -32 -42 -50 -42 -50 -20 -33 -20 -34
-16 -63 -16 -63 7 -34 6 -35 -11 0 -11 0 0 -15 0 -15 14 0 15 0 7 -11 6 -11
-31 -28 -31 -29 0 -9 0 -10 17 -7 18 -6 22 28 23 28 0 -11 0 -11 25 -27 24
-26 33 0 33 -1 20 -32 20 -31 27 -15 27 -15 48 12 48 13 23 15 22 14 0 38 0
37 29 17 30 16 24 39 24 38 12 36 12 36 2 107 2 107 -15 -3 -15 -3 -54 63 -54
64 12 37 11 38 0 7 0 6 -9 0 -10 0 -24 -31z"/>
</g>
</svg>
