<?xml version="1.0" standalone="no"?>
<!DOCTYPE svg PUBLIC "-//W3C//DTD SVG 20010904//EN"
 "http://www.w3.org/TR/2001/REC-SVG-20010904/DTD/svg10.dtd">
<svg version="1.0" xmlns="http://www.w3.org/2000/svg"
 width="65.000000pt" height="89.000000pt" viewBox="0 0 65.000000 89.000000"
 preserveAspectRatio="xMidYMid meet">
<metadata>
Created by potrace 1.16, written by Peter Selinger 2001-2019
</metadata>
<g transform="translate(0.000000,89.000000) scale(0.100000,-0.100000)"
fill="#000000" stroke="none">
<path d="M337 848 l-12 -8 -38 0 -39 0 -31 -17 -32 -18 -39 -28 -39 -27 -14
-19 -13 -20 -22 -68 -21 -68 0 -60 1 -60 17 -50 17 -50 23 -31 24 -31 33 -13
33 -13 18 -15 17 -15 0 -21 0 -21 24 -22 23 -23 7 -47 6 -48 9 -14 9 -15 17
14 16 13 -7 44 -6 43 50 0 50 0 7 40 7 39 -6 10 -6 10 16 40 16 41 8 0 8 0 42
40 42 40 8 0 8 0 24 38 23 37 -1 81 -1 80 -31 43 -32 43 6 10 6 10 -28 30 -29
30 -35 23 -36 22 -42 5 -43 4 -12 -8z"/>
</g>
</svg>
