<?xml version="1.0" standalone="no"?>
<!DOCTYPE svg PUBLIC "-//W3C//DTD SVG 20010904//EN"
 "http://www.w3.org/TR/2001/REC-SVG-20010904/DTD/svg10.dtd">
<svg version="1.0" xmlns="http://www.w3.org/2000/svg"
 width="65.000000pt" height="89.000000pt" viewBox="0 0 65.000000 89.000000"
 preserveAspectRatio="xMidYMid meet">
<metadata>
Created by potrace 1.16, written by Peter Selinger 2001-2019
</metadata>
<g transform="translate(0.000000,89.000000) scale(0.100000,-0.100000)"
fill="#000000" stroke="none">
<path d="M235 777 l-40 -12 -23 -13 -22 -13 -26 -51 -26 -52 -14 -46 -13 -46
-2 -69 -2 -70 6 -35 6 -35 0 -7 1 -7 23 -13 23 -13 47 -30 47 -30 18 -43 17
-42 18 -6 17 -5 0 -10 0 -11 30 7 30 7 0 -26 0 -26 10 0 10 0 10 25 10 25 13
0 14 0 17 19 18 20 -7 39 -6 40 13 11 13 11 45 33 45 33 22 39 23 40 0 40 0
40 -11 44 -10 44 -20 43 -19 44 20 40 20 39 0 6 0 5 -14 0 -14 0 -17 -26 -16
-25 -15 11 -14 12 6 24 6 24 -13 -1 -14 0 -19 -8 -19 -7 -36 12 -36 13 -45 0
-45 -1 -40 -11z"/>
<path d="M55 290 l-6 -10 6 -10 6 -10 20 0 19 0 0 20 0 20 -19 0 -20 0 -6 -10z"/>
<path d="M110 235 l-13 -16 12 -25 11 -25 23 3 22 3 3 23 4 23 -12 15 -12 14
-13 0 -13 0 -12 -15z"/>
</g>
</svg>
