<?xml version="1.0" standalone="no"?>
<!DOCTYPE svg PUBLIC "-//W3C//DTD SVG 20010904//EN"
 "http://www.w3.org/TR/2001/REC-SVG-20010904/DTD/svg10.dtd">
<svg version="1.0" xmlns="http://www.w3.org/2000/svg"
 width="65.000000pt" height="89.000000pt" viewBox="0 0 65.000000 89.000000"
 preserveAspectRatio="xMidYMid meet">
<metadata>
Created by potrace 1.16, written by Peter Selinger 2001-2019
</metadata>
<g transform="translate(0.000000,89.000000) scale(0.100000,-0.100000)"
fill="#000000" stroke="none">
<path d="M458 800 l-27 -21 -5 -17 -6 -18 -73 1 -72 1 -12 7 -13 8 0 -19 0
-20 -17 -6 -16 -7 -9 13 -8 13 0 13 0 12 -11 0 -11 0 6 -37 6 -38 -15 28 -16
27 -10 0 -10 0 15 -28 15 -29 -35 -16 -35 -17 -24 -53 -25 -52 0 -95 0 -95 10
-36 10 -35 25 -24 25 -24 -6 -19 -6 -19 21 7 21 6 0 -11 0 -11 -10 -20 -11
-19 10 0 10 0 6 10 6 10 8 0 9 0 6 -35 7 -34 14 -15 15 -14 70 -1 70 0 15 22
15 23 2 28 3 28 50 25 50 25 22 20 22 20 23 -16 22 -16 16 0 15 1 -23 19 -22
18 -11 4 -11 4 24 49 25 50 6 57 6 58 -12 -3 -12 -2 -3 25 -4 25 -7 5 -6 5
-25 50 -25 49 -37 39 -37 39 12 22 12 21 14 17 13 17 -4 11 -3 11 -27 -21z
m-37 -166 l21 -19 33 -50 33 -50 22 -64 21 -64 -38 -46 -39 -46 -50 -25 -51
-25 -15 -13 -16 -12 -6 -41 -6 -40 -37 3 -37 3 -7 33 -7 33 -23 26 -24 25 -49
36 -49 36 7 75 6 76 6 55 6 55 15 16 14 16 62 16 62 16 20 3 20 4 42 -7 43 -6
21 -19z"/>
<path d="M60 70 l0 -10 11 0 10 0 -6 10 -6 10 -5 0 -4 0 0 -10z"/>
</g>
</svg>
