<?xml version="1.0" standalone="no"?>
<!DOCTYPE svg PUBLIC "-//W3C//DTD SVG 20010904//EN"
 "http://www.w3.org/TR/2001/REC-SVG-20010904/DTD/svg10.dtd">
<svg version="1.0" xmlns="http://www.w3.org/2000/svg"
 width="65.000000pt" height="89.000000pt" viewBox="0 0 65.000000 89.000000"
 preserveAspectRatio="xMidYMid meet">
<metadata>
Created by potrace 1.16, written by Peter Selinger 2001-2019
</metadata>
<g transform="translate(0.000000,89.000000) scale(0.100000,-0.100000)"
fill="#000000" stroke="none">
<path d="M214 783 l-6 -28 -30 -48 -30 -47 -12 -8 -12 -7 -26 -60 -27 -60 -11
-103 -11 -102 26 -34 26 -34 15 -6 14 -6 -6 -25 -6 -25 11 0 12 0 5 15 6 15 9
-6 9 -5 -20 -26 -20 -26 0 -13 0 -14 9 0 10 0 19 25 20 25 4 0 5 0 13 -41 14
-41 10 -3 11 -3 71 -7 72 -6 11 32 11 32 0 27 0 28 52 27 52 27 18 12 19 11
19 64 20 63 0 57 0 56 -17 49 -18 49 -27 17 -27 16 -21 27 -21 27 -13 0 -13 0
-26 20 -26 20 -59 -4 -59 -4 -21 -11 -21 -11 -5 0 -5 0 15 35 14 34 0 16 0 15
-10 0 -10 0 -6 -27z"/>
<path d="M86 113 l-6 -6 0 -14 0 -13 9 0 9 0 5 15 6 14 -8 5 -8 5 -7 -6z"/>
</g>
</svg>
