<?xml version="1.0" standalone="no"?>
<!DOCTYPE svg PUBLIC "-//W3C//DTD SVG 20010904//EN"
 "http://www.w3.org/TR/2001/REC-SVG-20010904/DTD/svg10.dtd">
<svg version="1.0" xmlns="http://www.w3.org/2000/svg"
 width="65.000000pt" height="89.000000pt" viewBox="0 0 65.000000 89.000000"
 preserveAspectRatio="xMidYMid meet">
<metadata>
Created by potrace 1.16, written by Peter Selinger 2001-2019
</metadata>
<g transform="translate(0.000000,89.000000) scale(0.100000,-0.100000)"
fill="#000000" stroke="none">
<path d="M553 803 l-31 -28 -30 -53 -30 -54 -6 10 -6 11 -56 20 -55 21 -37 -8
-38 -9 -48 -36 -48 -37 -12 0 -12 0 -36 -37 -36 -38 -10 -20 -10 -20 -7 -82
-7 -82 23 -41 23 -40 48 -31 48 -31 20 -45 20 -46 0 -22 0 -23 41 -21 41 -22
36 7 37 6 16 4 17 5 7 65 7 66 17 16 18 17 37 33 36 34 0 7 0 8 25 13 25 13 0
12 0 12 20 26 20 25 0 16 0 15 -22 46 -22 45 22 23 22 23 0 12 0 12 -5 0 -5 0
-20 -12 -21 -13 -8 14 -9 14 24 51 24 51 0 13 0 12 -10 0 -9 0 -17 -32 -16
-33 -10 -12 -10 -12 -14 14 -14 14 0 9 0 10 45 53 45 53 0 18 0 18 -3 0 -3 0
-31 -27z m-130 -182 l46 -30 25 -38 24 -38 18 -56 17 -57 -22 -30 -22 -31 -30
-22 -30 -21 -27 -7 -27 -7 -27 -54 -28 -55 0 -32 0 -33 -12 0 -13 0 -22 6 -23
6 0 29 0 29 -20 12 -20 13 0 18 0 19 -17 29 -17 29 -32 10 -32 11 -17 19 -18
20 5 44 5 44 23 47 23 47 34 32 35 31 41 22 42 22 36 1 35 0 47 -29z"/>
</g>
</svg>
