<?xml version="1.0" standalone="no"?>
<!DOCTYPE svg PUBLIC "-//W3C//DTD SVG 20010904//EN"
 "http://www.w3.org/TR/2001/REC-SVG-20010904/DTD/svg10.dtd">
<svg version="1.0" xmlns="http://www.w3.org/2000/svg"
 width="1992.000000pt" height="1992.000000pt" viewBox="0 0 1992.000000 1992.000000"
 preserveAspectRatio="xMidYMid meet">
<metadata>
Created by potrace 1.16, written by Peter Selinger 2001-2019
</metadata>
<g transform="translate(0.000000,1992.000000) scale(0.100000,-0.100000)"
fill="#000000" stroke="none">
<path d="M14519 19885 l-16 -16 -39 -11 -39 -10 -50 -10 -50 -10 -53 -11 -54
-11 -19 12 -19 12 -62 0 -62 0 -57 -12 -56 -11 -34 15 -34 16 -123 -3 -123 -2
-12 -12 -12 -12 15 -9 15 -10 95 -1 95 -1 -25 -8 -25 -8 32 -1 31 -1 4 12 4
12 43 -14 42 -13 72 16 72 17 48 0 47 0 0 -10 0 -9 20 -11 21 -11 93 20 93 21
27 10 27 10 40 0 40 0 22 -14 22 -14 45 -7 45 -6 80 14 80 14 150 -8 150 -8
85 -10 85 -10 39 -10 40 -10 8 5 8 5 22 -15 22 -16 23 0 22 0 35 18 36 17 0 8
0 7 -29 0 -29 0 -33 14 -34 13 -15 -5 -15 -5 -7 -10 -6 -10 -84 26 -83 26 -85
10 -85 11 -80 -1 -80 -1 -56 -10 -55 -10 -90 32 -89 31 -30 5 -30 5 -16 -16z"/>
<path d="M595 19864 l-50 -13 -30 5 -30 6 -15 -2 -15 -3 -140 -2 -140 -2 -10
-2 -10 -3 -40 -1 -40 -2 -3 -18 -4 -18 18 -20 17 -19 2 -111 1 -111 17 -13 18
-13 0 -80 1 -80 -11 -20 -11 -20 6 -61 7 -61 13 -11 14 -11 0 -52 -1 -51 -19
-100 -19 -100 -18 -62 -17 -62 14 -38 15 -38 0 -365 0 -365 13 -129 13 -129
-13 -31 -13 -31 1 -185 1 -185 7 -47 7 -48 9 0 8 0 4 76 4 77 34 26 34 26 35
40 35 40 81 80 82 80 72 39 72 40 11 13 11 13 -5 5 -5 5 -94 -56 -94 -56 -46
-34 -47 -34 -26 0 -27 0 10 18 10 19 89 94 90 94 3 20 4 19 25 13 25 12 26 5
26 6 24 21 24 21 -20 -7 -20 -7 -30 -10 -30 -10 -50 -25 -50 -26 -85 -43 -85
-43 -10 -9 -11 -9 -14 -5 -15 -5 -22 71 -23 71 -12 83 -12 83 24 167 25 167 0
140 0 140 -5 77 -5 76 5 5 5 6 43 -12 42 -11 12 12 12 12 -51 22 -51 21 9 24
9 24 0 33 0 34 -14 33 -14 34 -5 83 -6 82 9 0 9 0 55 -20 54 -21 14 -16 13
-16 10 -35 10 -35 15 -8 15 -8 105 -50 105 -51 50 -40 49 -39 5 4 4 5 -24 34
-23 34 -91 60 -90 60 -39 18 -39 19 -12 37 -13 38 -23 20 -24 19 -60 32 -60
33 -11 14 -11 15 -2 179 -2 179 -14 76 -15 77 5 5 6 5 57 7 57 6 55 -8 55 -9
95 6 95 5 60 11 60 11 88 4 88 5 28 -11 27 -12 -4 -92 -4 -92 -1 -24 -2 -24
12 -4 12 -4 6 33 6 33 4 45 4 45 14 50 14 50 269 1 269 1 45 -6 45 -6 55 6 55
7 15 -21 15 -20 64 -68 64 -69 13 0 13 0 26 -27 25 -28 21 -55 20 -55 24 -36
23 -35 31 -62 31 -62 10 0 10 0 0 10 0 10 -32 58 -31 57 -14 17 -14 16 -20 77
-19 77 5 9 6 8 -15 29 -15 28 -15 13 -16 13 0 23 0 22 11 32 11 31 17 0 18 0
29 -14 29 -14 90 14 90 14 185 1 185 0 35 -6 35 -6 19 14 19 14 36 -24 36 -24
16 20 17 20 12 -29 12 -29 15 -13 15 -12 10 -25 9 -26 67 -104 66 -104 3 10 4
10 -21 52 -20 52 0 17 0 18 -26 35 -26 34 -9 23 -9 23 20 21 20 22 0 8 0 8 19
0 19 0 12 -15 12 -15 25 0 24 0 29 15 29 15 66 9 67 10 6 5 5 6 -51 0 -52 0
-20 12 -20 13 -22 -14 -22 -13 -30 -9 -31 -9 -32 17 -33 18 -29 -33 -30 -32
-14 0 -14 0 -13 25 -14 26 -25 6 -25 6 -4 -11 -3 -10 -35 14 -34 14 -29 -14
-28 -15 -22 16 -22 15 -37 -7 -37 -7 -130 -3 -130 -3 -65 -11 -65 -11 -48 0
-48 0 -30 16 -30 15 -27 -3 -27 -3 -23 -42 -23 -43 -14 0 -13 0 -50 57 -50 57
-43 -1 -44 -1 -30 -16 -30 -16 -20 0 -20 0 -30 16 -30 16 -150 -8 -150 -7
-175 -3 -175 -2 -46 -7 -46 -7 -48 21 -48 21 -26 -1 -26 -1 -50 -14z m-294
-2211 l-50 -58 -25 -55 -26 -55 0 22 0 21 12 50 11 50 19 5 19 6 6 21 6 21 31
14 31 13 8 1 8 1 -50 -57z"/>
<path d="M12282 19855 l-30 -25 -8 0 -8 0 -28 -27 -28 -27 0 41 0 41 -15 6
-15 5 -21 -22 -21 -22 -9 -23 -9 -24 -42 34 -42 33 -71 1 -70 0 -67 9 -67 8
-25 -17 -25 -16 -21 0 -21 0 -31 -16 -31 -16 -76 2 -76 3 -25 0 -25 0 -38 -15
-39 -15 39 -6 38 -7 80 0 81 0 57 15 58 15 27 0 27 0 23 25 24 24 46 -6 47 -6
30 -16 30 -16 10 0 10 -1 35 -22 35 -22 17 0 17 0 5 -17 4 -18 -2 -30 -3 -30
-26 -50 -25 -50 -7 -22 -6 -23 10 0 10 0 17 33 17 32 33 43 33 43 6 29 7 30 9
5 9 6 0 23 0 24 20 23 19 24 1 -32 0 -32 11 -7 11 -6 29 28 29 28 0 -13 0 -14
53 8 52 8 65 -2 65 -2 33 -15 33 -15 47 11 47 11 35 7 35 7 3 17 3 16 -18 6
-19 6 -78 -10 -79 -10 -53 6 -53 7 -22 23 -22 24 -28 0 -27 0 -30 -25z"/>
<path d="M17555 19873 l-80 -4 -28 -27 -28 -27 -160 -1 -159 -1 -24 -13 -24
-12 -61 21 -61 21 -18 0 -17 0 -27 14 -28 15 -122 1 -123 2 -12 -1 -13 -1 0
-19 0 -19 23 -6 24 -6 149 -1 149 -1 55 -23 55 -22 170 2 170 3 60 23 60 23
142 1 142 0 17 17 16 16 -19 11 -20 10 -64 4 -64 4 -80 -4z"/>
<path d="M18433 19855 l-51 -26 -96 16 -96 15 -44 0 -45 0 -28 -11 -28 -10
-67 -4 -66 -4 -5 20 -5 19 -25 0 -25 0 -16 -6 -16 -6 0 -15 0 -14 23 7 22 7
-17 -20 -18 -20 0 -16 0 -17 15 0 15 0 0 -50 0 -51 16 -25 17 -25 1 -62 1 -62
15 0 15 0 -2 55 -1 55 -9 97 -9 96 216 -2 215 -1 61 21 61 21 50 -23 49 -24
34 9 35 9 47 5 47 4 -6 -31 -6 -31 -30 -85 -29 -85 -10 -13 -11 -12 7 -7 6 -6
21 19 22 19 -32 -55 -32 -55 -29 -63 -30 -63 -35 -60 -35 -61 12 4 13 5 66
110 65 111 39 53 39 54 63 104 63 104 0 16 0 16 132 0 133 0 10 -13 10 -12 85
-11 85 -11 75 7 75 8 75 -2 75 -2 24 -16 24 -15 38 5 39 5 0 -6 0 -7 -10 -70
-10 -70 -22 -72 -21 -73 -18 0 -17 0 -28 -72 -27 -73 -19 -28 -20 -27 4 -12 5
-13 31 43 31 43 16 50 16 49 27 12 27 13 14 43 13 43 14 -18 13 -18 1 -71 0
-72 -15 -35 -15 -36 0 -36 0 -36 -28 -42 -29 -42 -6 -18 -6 -17 6 -16 6 -16
22 -8 23 -9 4 -33 5 -33 -3 -135 -4 -135 15 -82 15 -82 -16 -73 -17 -73 -4
-57 -5 -57 -21 13 -22 14 -22 7 -23 6 0 -9 0 -10 45 -26 45 -27 0 -17 0 -18
12 -12 12 -12 -17 0 -18 0 -34 14 -34 14 -43 40 -43 40 -52 -6 -52 -7 9 -15 9
-14 42 1 42 2 34 -29 33 -30 33 -17 32 -17 35 -5 35 -6 14 -74 14 -74 -13 -50
-13 -51 -1 -160 -1 -161 -19 -34 -18 -34 5 -51 5 -51 12 -123 12 -123 -16 -78
-16 -78 0 -31 0 -31 -20 -6 -20 -6 -6 -26 -7 -26 11 -18 11 -17 -27 -7 -27 -6
-67 -31 -68 -31 0 -8 0 -9 6 0 6 0 99 31 98 31 16 -6 15 -6 9 -22 9 -23 -15
-24 -15 -23 7 -57 6 -56 6 -22 5 -23 9 0 9 0 0 33 0 32 -11 39 -11 39 18 32
17 32 -12 34 -12 34 11 3 10 4 0 14 0 14 -12 0 -13 0 24 19 24 18 -6 38 -6 38
-20 21 -19 21 24 90 23 90 0 85 1 85 -10 60 -10 60 16 41 16 42 -6 153 -6 154
-2 30 -1 30 1 50 2 50 2 65 1 65 0 35 0 35 -2 115 -1 115 -11 105 -10 105 -4
205 -3 205 20 39 20 38 -1 32 0 31 -4 132 -4 132 -18 37 -17 37 5 56 5 56 17
68 17 68 -6 16 -6 15 -57 -4 -57 -5 -27 16 -28 16 -24 -23 -23 -22 -37 0 -37
0 0 9 0 8 -67 7 -68 6 -258 1 -258 1 -4 -3 -3 -4 -57 -100 -57 -100 -8 -9 -8
-8 22 63 23 64 6 32 6 33 -36 15 -37 16 -73 6 -74 6 -5 8 -5 9 -23 0 -22 0
-51 -25z"/>
<path d="M4257 19862 l-12 -4 -32 -14 -31 -14 -13 0 -13 0 -31 -11 -31 -12
-30 28 -29 27 -40 -8 -40 -8 -255 -2 -255 -1 -48 -7 -47 -7 6 -11 6 -10 277 6
276 7 46 5 46 6 19 -11 19 -11 18 -14 18 -14 -16 -33 -17 -33 -9 -104 -8 -105
8 -15 9 -15 5 19 5 19 7 80 6 80 11 35 10 35 13 18 12 17 109 11 109 11 150 4
150 4 242 7 243 8 16 -12 16 -12 47 6 46 5 24 -26 24 -26 19 0 18 0 0 -11 0
-11 -34 -56 -35 -57 -6 -65 -6 -65 9 15 9 15 13 53 12 53 35 41 34 42 20 37
19 38 0 17 0 16 48 -7 47 -6 70 -1 70 -1 22 12 23 12 80 6 79 6 16 -13 15 -12
0 13 0 14 8 -13 9 -13 16 7 17 6 0 -21 0 -21 10 0 10 0 0 20 0 20 9 0 10 0 14
-15 15 -14 12 -50 12 -50 16 -13 15 -13 -6 53 -6 53 33 -20 33 -21 21 0 20 0
37 -50 36 -49 27 -23 27 -23 16 -25 15 -25 37 -105 38 -105 9 -15 9 -14 4 4 5
5 -30 100 -29 100 -23 75 -22 75 4 62 4 62 26 -24 26 -24 28 -6 28 -6 20 6 20
6 0 15 0 14 10 0 10 0 43 -12 44 -11 19 7 19 8 30 3 30 4 50 22 50 22 64 -1
64 -1 35 15 34 14 54 0 53 0 28 -11 28 -11 55 -9 55 -9 57 10 58 11 19 -10 19
-11 11 14 12 14 -13 9 -13 8 -90 2 -90 3 -185 3 -185 3 -36 8 -35 8 -66 -36
-65 -36 -28 0 -29 0 -42 16 -43 16 -29 -15 -30 -15 -29 6 -28 5 -25 30 -26 30
-21 -7 -22 -7 -6 -18 -6 -18 -2 -97 -2 -96 -2 0 -2 0 -51 75 -52 74 -22 7 -21
6 -73 36 -73 36 -9 -14 -9 -14 -23 12 -23 13 -140 -7 -140 -6 -113 -1 -114 -2
-11 -15 -12 -15 -32 -2 -31 -2 -12 14 -12 14 -49 -6 -49 -6 -20 18 -19 17
-103 -6 -103 -6 -69 -6 -69 -7 -51 12 -51 11 -213 3 -212 2 -13 -3z"/>
<path d="M10095 19848 l-26 -20 -28 -50 -29 -50 -7 11 -6 11 6 20 6 20 -20 29
-20 28 -218 -5 -218 -5 -35 3 -35 3 -120 0 -120 -1 -55 -1 -54 -2 -18 -16 -18
-16 -40 1 -39 2 -6 -11 -7 -10 -13 18 -13 18 -33 -12 -32 -13 -14 11 -13 11
-15 -6 -15 -5 0 -40 0 -40 10 -6 10 -6 0 31 0 31 18 -10 19 -10 23 16 23 16 9
-17 9 -16 18 0 19 0 6 15 5 15 20 0 20 0 6 -10 6 -10 23 0 23 0 18 20 18 20
50 -5 51 -5 101 -5 102 -5 45 -8 45 -9 59 4 59 4 35 9 35 9 98 4 97 4 0 -16 0
-16 26 -38 25 -38 6 -69 6 -69 -13 -60 -12 -60 6 -45 7 -46 9 0 8 0 5 58 5 57
16 65 15 65 -13 10 -14 11 19 23 19 23 -6 10 -6 10 -8 -12 -7 -12 -6 21 -5 21
8 5 9 5 6 -10 6 -10 9 5 9 6 -5 13 -5 14 10 7 11 6 -6 -15 -6 -16 11 0 12 0
17 31 17 32 23 27 22 28 0 15 0 15 -14 5 -15 6 -26 -21z"/>
<path d="M16225 19839 l-60 -29 -22 5 -22 5 -56 -25 -56 -25 -19 -22 -19 -23
-43 22 -43 21 -80 10 -80 11 -13 -13 -13 -13 -38 10 -38 10 -16 -6 -17 -6 0
-9 0 -9 70 -32 71 -33 15 6 16 6 -4 25 -5 25 9 0 9 0 50 -21 50 -22 6 6 5 6
37 -24 36 -25 12 0 13 0 0 -10 0 -11 -15 -36 -15 -35 0 -34 0 -33 -11 -52 -11
-52 -18 -31 -18 -31 -11 -100 -12 -99 -6 -26 -6 -25 12 11 12 11 23 89 23 89
17 39 16 38 0 29 0 29 45 78 45 77 10 58 11 58 -3 32 -3 31 45 7 45 7 52 21
53 21 114 -3 114 -2 21 19 21 19 0 7 0 6 -122 1 -123 1 -60 -29z"/>
<path d="M10217 19853 l-7 -6 0 -19 0 -18 53 0 52 0 43 -20 42 -19 14 5 14 6
6 13 5 14 31 -10 31 -11 29 12 30 13 50 -7 50 -7 6 16 6 16 -7 7 -7 7 -61 2
-62 2 -55 5 -55 4 -21 -13 -21 -13 -14 9 -14 9 -45 0 -46 0 -12 -12 -12 -12 0
17 0 17 -8 0 -9 0 -6 -7z"/>
<path d="M10830 19850 l-55 -7 -37 -7 -38 -7 0 -9 0 -10 19 0 20 0 7 -11 6
-11 37 5 36 5 69 13 68 12 32 -11 32 -12 27 0 26 0 58 -15 57 -15 43 0 43 0 0
8 0 8 -62 27 -63 27 -56 -6 -56 -6 -23 12 -24 13 -55 2 -56 2 -55 -7z"/>
<path d="M13210 19851 l0 -8 -30 -34 -31 -34 4 -42 5 -43 -17 0 -17 0 -34 35
-35 36 -40 -2 -40 -2 -48 16 -48 17 -23 15 -24 16 -32 9 -33 9 -8 -5 -8 -5 5
-14 6 -14 64 -42 64 -41 13 10 12 10 25 -13 25 -14 19 -1 19 0 33 -25 34 -26
41 -14 42 -15 18 0 18 0 43 -29 43 -28 22 -7 22 -7 23 -32 23 -31 103 -116
104 -115 10 -4 10 -3 -14 26 -13 25 -105 117 -105 117 -67 66 -66 66 -6 40 -5
40 14 43 15 43 -5 10 -6 9 -10 0 -9 0 0 -9z"/>
<path d="M8510 19838 l-75 -7 -77 -6 -78 -7 0 -8 0 -8 38 -5 37 -4 8 7 9 8 31
-8 32 -8 114 -7 115 -7 22 -8 22 -9 47 -50 48 -51 9 0 8 0 -6 28 -6 27 -5 18
-4 17 -20 0 -19 0 0 19 0 20 -35 27 -35 27 -53 1 -52 1 -75 -7z"/>
<path d="M13264 19836 l-6 -15 4 -17 3 -17 17 -10 16 -11 40 18 40 18 44 -5
43 -6 32 -6 33 -7 25 6 26 7 -5 8 -5 8 -68 8 -68 7 -35 1 -35 2 -32 -8 -31 -8
-7 20 -6 21 -10 0 -10 0 -5 -14z"/>
<path d="M3290 19836 l0 -4 15 -6 15 -5 0 9 0 10 -15 0 -15 0 0 -4z"/>
<path d="M7488 19827 l-47 -10 -6 -25 -6 -24 6 -6 6 -6 5 21 6 21 16 4 17 5
60 -8 60 -7 30 -1 30 -1 15 10 15 9 -10 10 -10 9 -70 5 -70 5 -47 -11z"/>
<path d="M7756 19831 l-49 -6 -5 -14 -5 -14 83 6 83 5 22 -10 23 -10 48 10 49
11 12 -11 13 -10 32 7 33 6 50 6 50 5 8 8 9 8 -46 6 -45 7 -18 -9 -18 -8 -95
3 -95 3 -45 4 -45 4 -49 -7z"/>
<path d="M8840 19587 l0 -53 21 -65 22 -64 8 -9 9 -10 0 10 0 9 -15 55 -15 55
0 63 0 62 -15 0 -15 0 0 -53z"/>
<path d="M3053 19472 l-13 -8 36 -67 35 -67 9 0 9 0 -9 28 -8 27 -21 48 -22
47 -2 0 -2 0 -12 -8z"/>
<path d="M11961 19446 l-23 -24 -23 -50 -23 -49 -6 -44 -6 -44 15 35 15 35 15
25 14 25 26 48 26 49 -3 9 -3 10 -24 -25z"/>
<path d="M17910 19401 l0 -53 13 5 12 4 -2 39 -3 38 -10 10 -10 10 0 -53z"/>
<path d="M5207 19400 l-26 -30 -22 -40 -23 -40 -8 0 -9 0 6 -10 6 -9 14 5 14
6 45 74 44 74 -8 0 -8 0 -25 -30z"/>
<path d="M917 19414 l-7 -7 0 -54 0 -54 9 6 10 5 7 46 6 46 -9 9 -9 9 -7 -6z"/>
<path d="M17930 19284 l1 -49 13 -77 14 -76 11 -19 10 -18 1 20 0 20 -20 119
-19 118 -5 6 -6 5 0 -49z"/>
<path d="M3147 19277 l-5 -12 17 -31 16 -31 32 -59 32 -59 19 -28 19 -27 6 6
6 6 -18 48 -18 48 -48 76 -48 76 -3 0 -2 0 -5 -13z"/>
<path d="M6410 19227 l0 -18 16 -37 16 -37 4 11 5 11 -21 44 -20 44 0 -18z"/>
<path d="M18421 19148 l-20 -41 5 -8 5 -8 15 6 15 5 14 29 15 28 0 16 0 15
-14 0 -14 0 -21 -42z"/>
<path d="M19440 19098 l-19 -32 6 -9 6 -10 28 34 27 34 -4 7 -5 8 -10 0 -9 0
-20 -32z"/>
<path d="M15825 19028 l-4 -13 -30 -89 -30 -90 6 -9 5 -8 15 21 15 21 24 61
24 62 0 28 0 28 -10 0 -11 0 -4 -12z"/>
<path d="M870 18734 l0 -5 35 -47 36 -47 36 -27 37 -28 8 0 8 0 0 13 0 13 -68
67 -68 67 -12 0 -12 0 0 -6z"/>
<path d="M19476 18465 l6 -15 22 0 21 1 -19 14 -20 15 -8 0 -7 0 5 -15z"/>
<path d="M19573 18396 l3 -11 25 -12 24 -11 24 -4 24 -3 4 10 3 10 -55 16 -56
17 4 -12z"/>
<path d="M19190 18308 l0 -8 35 0 35 0 0 4 0 4 -35 4 -35 4 0 -8z"/>
<path d="M19272 18278 l5 -13 31 0 32 0 3 10 2 10 -39 3 -38 3 4 -13z"/>
<path d="M780 17956 l-45 -13 -23 -12 -22 -12 0 -9 0 -10 13 1 12 0 99 22 99
22 5 13 4 12 -49 -1 -48 -1 -45 -12z"/>
<path d="M115 17103 l-16 -38 3 -25 3 -25 16 -3 16 -3 13 54 13 55 -7 11 -7
11 -9 0 -10 0 -15 -37z"/>
<path d="M127 16893 l-4 -78 -10 -37 -11 -37 14 -26 13 -26 7 -34 6 -33 -27
-61 -28 -61 7 -51 7 -51 21 -55 20 -55 -10 -57 -11 -56 -6 -43 -5 -42 15 -30
15 -29 0 -60 0 -60 -11 -28 -11 -28 1 -63 0 -63 21 -26 20 -26 0 -13 0 -14 15
0 15 0 0 16 0 16 28 -18 27 -18 33 -17 33 -17 42 -35 42 -34 52 -26 52 -27 87
-25 86 -25 11 0 11 0 -10 9 -9 9 -40 12 -40 12 -95 49 -95 49 -54 55 -55 55
-14 0 -14 0 -43 31 -42 31 -6 49 -6 50 9 51 10 51 -2 106 -1 106 13 43 14 43
25 20 26 19 13 11 13 11 -3 16 -3 17 -16 3 -16 3 -6 -21 -6 -22 -31 24 -32 23
-19 37 -19 37 0 45 0 45 12 28 12 28 7 75 7 75 7 45 7 45 -25 73 -25 73 -5 5
-5 6 -5 -79z"/>
<path d="M19188 16629 l-36 -18 -7 -11 -6 -10 15 -6 15 -6 45 21 46 20 0 15 0
16 -17 -1 -18 -1 -37 -19z"/>
<path d="M19725 16521 l-30 -18 -46 -50 -46 -51 -52 -11 -52 -11 -31 -16 -30
-16 -58 -42 -58 -43 -86 -68 -86 -68 0 -9 0 -8 5 0 6 0 30 15 29 16 110 79
110 79 30 16 30 15 70 14 70 13 21 -35 20 -35 10 -51 9 -51 -3 -70 -2 -70 17
-95 17 -95 5 -46 5 -46 -9 -34 -9 -34 -11 -105 -12 -105 2 -57 1 -57 -30 15
-31 15 -32 -3 -31 -3 -4 -12 -4 -12 34 -6 34 -7 27 -21 27 -22 4 -165 5 -165
3 -82 2 -83 -5 0 -6 0 -54 56 -55 56 -60 27 -60 27 -53 62 -54 62 -10 0 -9 0
22 -39 22 -40 36 -37 36 -37 52 -24 53 -24 28 -32 29 -32 48 -53 49 -53 -17
-29 -17 -28 0 -117 0 -117 20 -131 19 -132 4 -55 4 -55 -10 -25 -9 -25 -13
-105 -14 -105 -19 -45 -20 -45 13 -75 14 -75 0 -47 1 -47 16 -47 16 -47 -7
-95 -8 -95 14 5 14 5 12 49 11 49 1 44 1 45 -22 23 -22 24 17 135 18 136 9 18
9 17 6 184 6 184 3 50 4 50 7 230 7 230 4 6 4 7 -15 36 -16 37 12 58 12 58
-16 109 -16 109 -4 113 -5 112 25 61 25 62 -6 46 -7 46 -8 162 -9 163 -22 120
-23 121 12 12 11 11 -1 95 -1 96 -7 25 -8 25 19 37 18 37 0 15 0 15 20 11 20
11 0 18 0 19 -16 6 -16 6 -6 0 -7 0 -30 -19z"/>
<path d="M602 16448 l-12 -12 0 -15 0 -15 16 16 16 16 -3 11 -4 12 -13 -13z"/>
<path d="M470 16430 l-15 -10 -38 -10 -37 -11 -35 -30 -35 -31 0 -14 0 -14 6
0 6 0 33 29 33 29 39 6 38 7 24 18 24 18 -7 12 -7 11 -7 0 -7 0 -15 -10z"/>
<path d="M200 15646 l0 -14 -19 5 -19 5 -11 -21 -12 -21 -6 -42 -6 -43 0 -62
0 -63 -8 0 -8 0 5 -47 6 -48 -21 -24 -21 -24 0 -21 1 -21 14 -25 14 -25 -6
-60 -5 -60 -19 -97 -19 -96 0 -47 0 -47 19 -5 19 -5 5 -19 5 -18 -14 -12 -14
-11 0 -17 0 -17 43 -41 42 -40 19 -7 18 -6 -36 -43 -37 -42 -16 -33 -17 -32
10 -10 10 -10 -13 -143 -13 -142 3 -89 3 -89 18 -12 17 -13 20 -77 19 -78 0
-13 0 -14 -18 0 -18 0 -12 -12 -12 -12 0 -26 0 -26 20 -42 20 -41 11 -53 11
-53 25 -21 25 -21 -26 -84 -25 -84 -21 -88 -20 -88 -14 -27 -14 -27 -12 -56
-12 -55 22 -85 23 -84 -2 -67 -2 -68 9 0 10 0 10 13 10 12 11 150 12 150 14
45 14 45 3 37 2 38 34 11 33 11 -4 11 -3 11 -29 1 -28 0 -3 19 -3 19 9 76 9
76 11 37 11 37 34 -16 35 -17 7 8 8 8 -33 29 -32 29 0 22 0 23 -19 65 -19 65
-16 37 -16 37 0 21 0 20 98 -107 97 -107 62 -66 63 -65 0 7 0 6 -86 99 -87 98
-52 65 -52 65 -13 24 -13 24 2 50 1 49 -16 29 -15 30 -22 22 -22 22 0 202 0
203 13 0 13 0 62 63 62 62 98 48 97 48 0 20 0 20 83 39 82 38 70 72 70 71 77
44 77 45 28 25 28 24 -15 1 -15 0 -45 -30 -45 -31 -42 -19 -42 -19 -90 -85
-90 -84 -61 -23 -62 -23 -41 -33 -41 -34 -37 -20 -38 -19 -6 11 -7 10 -32 -1
-31 -2 -23 1 -22 1 -45 41 -45 41 6 25 6 24 -12 43 -12 43 30 99 29 99 12 58
13 57 -31 50 -31 50 0 15 0 15 9 0 10 0 6 19 6 19 29 37 30 38 0 30 0 31 -27
28 -27 28 3 42 2 42 15 10 14 11 7 38 6 37 -12 0 -11 0 0 -14z"/>
<path d="M620 13297 l0 -15 55 -42 56 -43 7 7 7 7 -22 17 -21 17 -41 33 -41
34 0 -15z"/>
<path d="M235 13250 l-6 -10 55 0 56 0 0 10 0 10 -49 0 -50 0 -6 -10z"/>
<path d="M19715 13150 l6 -10 15 0 14 0 0 10 0 10 -21 0 -20 0 6 -10z"/>
<path d="M19724 13068 l7 -43 10 -75 10 -75 -6 -135 -6 -135 15 -65 15 -65 7
-70 6 -70 4 -18 3 -17 -14 -33 -14 -33 -6 -59 -7 -60 10 -26 10 -25 -5 -67 -6
-68 -17 16 -18 16 -43 -3 -42 -3 -5 -12 -4 -13 24 -9 23 -8 51 -5 51 -5 14 51
13 51 2 75 2 75 6 69 7 69 -10 31 -10 31 -16 130 -16 130 27 75 26 75 -6 85
-6 85 -17 85 -18 85 -29 3 -29 4 7 -44z"/>
<path d="M702 12609 l-103 -37 -7 -7 -7 -8 46 6 46 6 54 21 54 20 14 9 13 9
-3 9 -4 10 -103 -38z"/>
<path d="M520 12581 l-15 -9 -135 -35 -135 -36 -32 -6 -33 -7 0 11 0 11 -27
-6 -28 -7 -9 -8 -9 -8 11 -25 11 -24 -10 -37 -10 -37 15 -16 14 -17 -13 -25
-14 -25 0 -45 -1 -45 14 -40 14 -40 -5 -60 -5 -61 17 -64 16 -65 6 -91 6 -91
-22 -15 -23 -16 -9 -39 -9 -38 -6 -126 -7 -126 27 -36 27 -35 -12 -46 -11 -45
5 -33 6 -33 10 -65 10 -65 22 -50 23 -50 -2 -80 -2 -81 20 -58 20 -59 0 -43 0
-43 -20 -51 -20 -51 0 -52 0 -52 19 -31 19 -32 -11 -12 -12 -12 20 4 20 3 14
-44 14 -45 -13 -30 -12 -31 -14 -55 -14 -55 -46 -224 -46 -224 -9 -24 -9 -24
0 -48 0 -47 16 -46 15 -45 25 -23 24 -23 0 -8 0 -7 -23 -29 -24 -28 -13 -113
-13 -113 11 -11 11 -11 14 6 15 5 16 89 16 88 0 36 0 35 80 40 79 39 10 27 9
26 59 37 58 37 52 44 52 44 31 40 32 40 -10 0 -11 0 -86 -80 -87 -81 -47 -23
-46 -24 -24 -21 -24 -21 -14 0 -14 0 -35 -15 -34 -14 -7 -3 -6 -3 -4 97 -3 98
9 37 9 38 16 59 15 58 16 182 16 181 15 22 14 22 0 74 0 73 -24 50 -24 49 -6
18 -6 18 27 52 26 52 21 -30 20 -30 81 -79 80 -78 52 -30 53 -30 7 -11 7 -12
1 -14 0 -14 60 -48 60 -49 29 -16 28 -16 9 9 9 9 -52 58 -51 58 -46 21 -46 22
-3 23 -4 23 -16 6 -17 7 -62 56 -63 57 -37 49 -38 49 -12 20 -13 20 -19 35
-20 35 -40 37 -40 38 -17 32 -16 32 7 60 8 61 0 30 0 30 -21 70 -22 70 0 56 0
57 -15 12 -15 13 6 51 7 51 2 3 3 3 34 -17 33 -17 36 -29 36 -29 15 6 15 6
103 -51 103 -50 14 0 13 0 0 8 0 7 -115 53 -116 54 -13 -5 -14 -5 -28 30 -29
30 -47 30 -48 31 4 111 3 111 17 95 17 95 -6 30 -6 30 -14 115 -15 115 0 117
0 117 10 6 10 6 0 30 0 30 -15 36 -16 37 6 27 6 28 47 17 47 17 21 19 20 18
24 0 23 0 71 21 71 21 28 14 27 15 0 14 0 15 -7 0 -8 -1 -15 -8z"/>
<path d="M19704 12155 l-19 -14 17 -1 17 0 6 11 7 10 -4 5 -4 4 -20 -15z"/>
<path d="M19775 11801 l-6 -19 -18 5 -19 5 -74 -45 -73 -44 -62 -31 -62 -32
-38 -46 -38 -46 -25 -13 -25 -13 -47 -42 -48 -42 0 -14 0 -14 11 0 11 0 31 36
32 36 40 20 40 21 47 43 46 43 29 7 28 7 80 39 80 40 23 21 23 21 -6 -119 -7
-120 -10 -35 -10 -35 -15 -130 -15 -130 -5 -94 -4 -95 17 -37 17 -38 -7 -53
-6 -53 -23 -47 -22 -47 -26 -1 -25 0 -47 16 -46 16 -18 -4 -18 -4 49 -24 50
-24 51 -4 52 -4 26 -41 27 -41 0 -23 0 -23 -7 0 -8 0 -40 14 -40 14 -7 -5 -8
-4 0 -8 0 -9 31 -12 31 -13 -7 -21 -7 -21 1 -25 1 -25 0 -29 1 -29 -11 -11
-10 -10 -86 28 -85 28 -92 9 -92 8 -33 -5 -32 -6 -6 -9 -5 -9 43 0 43 -1 75
-13 75 -14 94 -36 95 -37 12 -10 13 -11 23 2 23 2 11 -1 11 -1 1 -37 2 -38 14
-85 14 -85 -8 -10 -9 -10 -12 -69 -11 -68 12 -38 12 -38 -16 -91 -17 -91 -13
-113 -13 -114 9 -49 10 -49 10 -155 11 -155 -12 -118 -11 -119 -10 -19 -11
-19 9 0 8 0 2 -30 2 -29 10 -26 10 -26 0 -62 0 -62 -10 -34 -10 -35 15 -16 15
-17 0 -51 0 -51 10 -6 11 -7 13 11 13 11 11 39 12 39 -10 27 -10 27 -10 112
-9 111 -10 30 -11 30 11 290 10 290 0 48 -1 48 20 174 20 175 0 59 0 60 -22
15 -21 15 16 83 16 82 -9 12 -10 11 -6 90 -7 90 22 22 22 22 -4 12 -4 12 -39
22 -39 23 -9 3 -9 3 10 41 10 42 -10 10 -11 11 18 19 18 19 31 -4 32 -5 14 10
14 9 -7 11 -7 11 -25 0 -24 0 0 33 0 32 -10 36 -10 37 -26 26 -27 26 21 47 20
48 16 71 15 71 -11 64 -11 64 0 155 -1 155 16 35 17 35 11 167 12 167 -7 11
-6 10 -9 0 -9 0 -6 -19z"/>
<path d="M19060 11351 l-55 -29 -55 -25 -55 -24 -81 -76 -80 -76 -129 -91
-128 -90 19 0 19 0 105 74 105 74 59 44 58 43 59 42 59 42 40 11 39 11 43 32
43 33 18 7 18 7 -6 10 -6 10 -17 0 -17 -1 -55 -28z"/>
<path d="M640 11088 l0 -14 33 -17 32 -17 25 -19 25 -20 43 -6 42 -7 0 10 0
10 -42 17 -43 16 -35 24 -35 23 -22 7 -23 6 0 -13z"/>
<path d="M856 11021 l-7 -10 18 -9 18 -10 59 -16 59 -17 24 6 24 6 -3 11 -4
12 -70 12 -70 11 -21 7 -21 7 -6 -10z"/>
<path d="M19008 10422 l-18 -3 0 -10 0 -10 75 2 75 2 0 13 0 13 -57 -1 -58 -2
-17 -4z"/>
<path d="M840 9913 l0 -14 38 -15 37 -15 18 -10 19 -10 5 5 5 5 -5 14 -5 13
-56 21 -56 21 0 -15z"/>
<path d="M1335 9119 l-40 -8 -80 -11 -80 -12 -24 -5 -24 -4 10 -10 10 -10 69
0 69 -1 149 26 149 26 4 0 3 0 0 10 0 10 -87 -1 -88 -2 -40 -8z"/>
<path d="M1140 9024 l-65 -13 -45 -1 -45 0 -35 -10 -34 -10 -86 -11 -85 -11
-19 -10 -19 -10 15 -9 16 -9 98 10 99 9 51 16 51 15 93 9 92 10 5 5 5 5 -5 16
-6 15 -8 -1 -8 -1 -65 -14z"/>
<path d="M899 8916 l-4 -4 -60 -6 -60 -6 -65 -19 -65 -19 -80 -32 -80 -33 -65
-2 -65 -2 -127 -36 -128 -36 -10 -6 -10 -6 -10 -19 -10 -19 20 -19 19 -18 16
-44 16 -45 10 -50 9 -50 9 -245 9 -245 -20 -170 -20 -170 4 -85 3 -85 22 -41
22 -42 12 -62 12 -61 -6 -77 -6 -77 -41 -160 -41 -160 15 -65 16 -65 15 -85
14 -85 11 -37 11 -38 9 0 10 0 0 -57 -1 -58 -9 -69 -8 -69 9 -24 9 -25 12 4
12 4 2 30 2 29 15 65 16 65 7 83 7 83 -21 22 -21 22 -17 100 -17 100 -4 25 -5
26 27 89 27 90 9 45 10 45 9 43 10 42 0 36 0 35 -24 22 -23 22 -16 50 -16 50
-5 185 -5 185 -5 120 -5 120 -6 78 -6 78 13 16 13 16 -3 147 -3 147 -24 89
-23 89 -10 32 -10 33 41 10 42 10 55 16 55 16 60 28 60 27 85 34 85 34 40 1
40 2 110 35 109 35 4 11 4 11 -9 0 -10 0 -4 -4z"/>
<path d="M19782 8058 l-13 -13 -61 -30 -62 -30 -13 -32 -13 -32 30 -28 29 -28
27 -105 27 -105 2 -90 3 -90 11 -63 12 -62 19 -60 19 -59 11 -22 12 -21 -17
-18 -16 -18 -15 -53 -15 -54 3 -260 3 -260 -42 -87 -42 -87 -6 -45 -7 -45 -57
-22 -56 -23 -134 -134 -134 -134 -54 -35 -54 -34 -66 -30 -66 -29 5 -6 5 -5
65 25 65 24 44 28 44 27 115 112 115 111 50 27 50 27 -40 -35 -40 -35 20 0 20
0 40 25 40 24 8 1 8 0 -11 -21 -12 -21 6 -5 6 -6 15 36 15 37 20 0 20 0 0 -82
0 -82 1 -211 2 -210 -11 -40 -11 -40 -6 -55 -6 -55 20 -59 21 -59 0 -54 0 -53
20 0 20 0 10 26 10 25 0 29 0 28 -20 47 -20 47 0 41 1 42 8 43 8 43 18 13 18
13 -6 204 -7 204 -6 110 -7 109 -21 17 -21 17 -7 -11 -8 -12 0 6 0 6 26 64 26
64 24 47 24 47 0 35 0 35 10 6 10 6 0 24 0 25 -24 15 -24 16 -6 42 -5 42 13
145 13 145 16 36 15 37 36 38 36 38 0 25 0 24 -25 44 -26 43 -30 92 -31 93 -9
95 -10 95 -19 125 -19 125 -21 17 -20 16 0 9 0 9 50 37 50 37 0 20 0 20 -3 0
-3 0 -12 -12z"/>
<path d="M306 7227 l-18 -14 6 -20 7 -21 18 5 19 5 73 -16 74 -15 143 -6 142
-6 0 5 0 5 -21 11 -20 11 -117 9 -117 9 -55 20 -55 19 -30 6 -30 7 -19 -14z"/>
<path d="M157 6053 l-6 -9 -7 -110 -6 -109 26 -76 26 -76 0 -22 0 -22 -15 -5
-16 -6 -9 -19 -10 -18 25 -67 25 -67 -6 -21 -6 -21 -15 -17 -14 -16 -34 -6
-33 -7 -12 -14 -11 -14 -3 -61 -4 -62 21 -19 21 -19 22 -87 23 -87 -6 -26 -5
-27 21 -6 21 -5 0 -20 0 -21 22 -15 22 -16 50 0 49 0 12 -16 12 -17 -18 -35
-18 -35 -43 -28 -43 -28 -17 -23 -18 -23 0 -27 0 -27 10 -6 10 -6 0 -36 0 -35
22 -39 21 -38 -13 -72 -14 -72 -18 -36 -18 -35 0 -76 0 -75 11 -40 10 -40 1
-10 0 -10 -15 -60 -15 -60 -6 -57 -6 -57 15 -15 16 -15 17 6 17 6 20 18 20 18
75 -50 75 -50 10 -18 10 -17 96 -92 96 -92 43 -15 43 -15 4 4 5 5 -56 26 -55
26 -44 62 -45 62 -31 29 -31 30 0 22 0 22 -75 58 -75 59 0 17 0 17 -20 6 -20
6 -10 -6 -11 -7 7 29 7 28 13 27 14 27 0 21 0 21 -16 31 -17 32 8 125 8 126 0
75 0 75 -8 46 -7 47 11 35 12 36 57 36 56 35 19 0 18 0 20 10 19 11 0 19 0 19
-21 14 -21 15 102 51 102 51 14 0 14 0 0 10 0 10 -19 0 -19 0 -71 -30 -70 -30
-58 -35 -57 -34 -6 5 -5 6 39 32 38 33 -6 20 -7 21 93 45 93 46 56 33 56 33
112 63 111 64 0 9 0 9 -27 -6 -28 -6 -220 -109 -220 -109 -11 0 -11 0 -39 -27
-39 -27 -52 1 -52 1 -10 6 -10 7 2 38 1 39 -11 24 -11 23 -11 34 -11 34 0 13
0 14 13 0 12 1 25 22 25 22 18 25 17 24 0 28 0 27 -10 6 -11 7 31 34 30 35 0
19 0 19 -9 5 -9 6 -38 72 -37 73 -2 50 -3 50 -28 65 -28 65 -1 122 0 121 -6 7
-7 6 -5 -8z m57 -808 l-17 -26 -4 5 -5 4 12 21 11 21 10 0 9 0 -16 -25z"/>
<path d="M1126 5382 l-99 -57 -5 -12 -4 -13 21 0 22 0 52 26 52 27 53 33 52
34 10 0 10 0 0 10 0 10 -32 -1 -33 -1 -99 -56z"/>
<path d="M19280 5015 l0 -16 -17 -27 -16 -27 -51 -53 -51 -54 -25 -10 -25 -10
-29 -9 -28 -8 14 17 15 17 43 78 42 79 -10 10 -11 11 -34 -54 -34 -54 -18 -35
-17 -35 -16 -17 -15 -18 -24 0 -24 0 -35 -15 -36 -15 -29 -24 -29 -24 -30 -7
-30 -7 0 -15 0 -16 38 6 39 5 42 26 42 27 67 6 67 6 61 33 60 34 79 19 79 20
16 -14 17 -15 19 0 19 0 35 24 35 23 38 12 37 13 15 29 15 28 19 11 20 10 5 0
5 0 -5 -13 -5 -14 15 -12 15 -13 45 10 45 9 3 -21 3 -21 -8 -55 -7 -55 -8
-107 -8 -106 -13 -15 -12 -16 -1 -33 -1 -33 18 -85 18 -85 25 -55 26 -55 4
-57 4 -57 -21 -34 -21 -34 -21 -84 -21 -84 4 -47 3 -48 -7 0 -8 0 -117 46
-118 45 -33 15 -33 14 -11 0 -10 0 11 -13 11 -14 166 -73 166 -73 -6 -41 -7
-41 -9 -70 -9 -70 -1 -118 0 -118 11 -97 11 -97 -13 -98 -12 -97 9 -65 10 -64
-26 -19 -25 -19 -23 -7 -22 -7 -48 -38 -48 -39 -32 -16 -31 -16 -73 -26 -72
-27 -119 -54 -118 -54 -52 -31 -52 -31 -112 -74 -112 -74 -6 -9 -6 -10 21 0
20 0 173 89 172 89 108 46 107 46 8 0 7 0 72 30 72 30 33 -22 33 -23 55 -41
55 -41 13 -45 13 -45 -6 -84 -7 -84 31 -97 30 -98 7 -73 6 -72 -16 -49 -17
-49 7 -108 7 -107 -24 -4 -24 -3 -3 -44 -3 -45 16 -43 17 -43 16 -9 17 -8 13
4 12 5 0 19 0 20 -16 25 -17 25 22 20 21 20 0 147 0 146 17 44 16 43 -20 28
-21 28 -12 89 -12 89 -5 49 -6 49 13 81 12 81 -17 60 -18 60 -18 36 -18 37
-41 34 -40 35 23 20 22 20 34 11 33 12 31 30 31 31 -12 19 -12 20 7 134 6 134
-15 38 -16 39 -12 93 -13 93 6 87 6 87 19 70 20 70 28 73 27 73 -22 53 -21 52
10 54 10 55 41 82 42 81 -6 64 -5 63 -25 65 -25 65 -21 92 -22 92 14 33 13 33
-2 220 -2 220 -31 3 -30 3 -38 -11 -38 -12 -45 -9 -45 -9 -55 -4 -55 -3 -35
-21 -35 -20 -45 -26 -45 -27 -30 -13 -30 -14 -25 -7 -25 -8 53 57 52 58 6 23
6 24 -7 10 -6 11 -10 0 -9 0 0 -15z"/>
<path d="M18605 4605 l-50 -23 -42 -18 -43 -17 0 -10 0 -10 63 7 62 7 45 22
45 22 0 20 0 20 -15 2 -15 2 -50 -24z"/>
<path d="M19074 3681 l7 -11 56 0 56 0 -4 4 -4 3 -59 8 -58 7 6 -11z"/>
<path d="M19432 3599 l5 -14 24 -12 24 -13 43 0 42 0 0 10 0 9 -18 10 -19 10
-53 7 -53 7 5 -14z"/>
<path d="M161 3489 l-1 -116 10 -53 10 -54 14 -15 14 -16 5 -115 4 -115 3
-203 2 -202 -39 -53 -40 -52 -21 -36 -22 -36 0 -31 0 -31 21 -15 21 -14 9 -48
9 -48 22 -23 21 -23 -7 -117 -6 -118 -11 -65 -11 -65 -3 -20 -2 -20 -2 -8 -1
-8 -9 5 -8 6 -18 -20 -17 -19 11 -120 11 -119 0 -84 0 -83 -11 -45 -10 -45 -3
-49 -2 -48 11 -12 10 -11 12 -25 11 -25 -1 40 -1 40 18 100 19 100 -2 163 -1
162 15 23 15 23 17 84 16 85 1 157 1 156 -25 27 -25 27 1 73 1 73 63 84 63 83
10 33 10 32 -10 23 -11 22 -17 70 -17 70 -9 85 -8 85 -15 144 -14 144 -10 6
-11 6 -21 115 -22 115 -8 40 -8 40 -1 -116z"/>
<path d="M19220 1545 l0 -14 20 -19 20 -19 50 -23 50 -23 7 7 7 7 -10 16 -10
17 -60 33 -59 33 -7 0 -8 0 0 -15z"/>
<path d="M7810 1478 l-40 -63 11 -3 10 -4 15 13 15 13 20 38 19 38 10 0 10 0
0 15 0 15 -15 0 -16 0 -39 -62z"/>
<path d="M17430 1514 l0 -15 31 -62 31 -62 21 -22 20 -23 9 0 8 0 0 16 0 16
-47 79 -46 78 -14 5 -13 5 0 -15z"/>
<path d="M1699 1376 l-41 -84 -5 -41 -6 -41 15 0 15 0 12 55 12 55 23 70 23
70 -4 0 -4 0 -40 -84z"/>
<path d="M19426 1422 l-5 -8 15 -29 14 -30 63 -75 63 -75 49 -34 50 -33 -2
-27 -1 -26 -8 -105 -7 -106 17 -32 16 -32 27 -6 26 -7 -9 -81 -8 -81 0 -185 0
-185 9 -78 8 -79 14 -14 14 -14 23 0 22 0 12 12 12 12 0 51 0 50 -14 59 -14
59 -27 25 -28 25 7 81 7 81 15 44 15 43 6 108 6 108 -32 30 -33 29 0 92 0 91
16 25 16 24 -10 26 -10 25 -17 0 -17 0 -66 39 -66 39 -82 86 -81 85 -5 -7z"/>
<path d="M7823 1362 l-21 -28 -27 -53 -26 -53 13 4 13 4 43 64 42 63 0 13 0
14 -8 0 -8 0 -21 -28z"/>
<path d="M4181 1273 l-11 -38 0 -22 0 -22 -30 -119 -30 -120 0 -19 0 -18 -34
-50 -33 -50 -6 -55 -7 -55 0 -45 -1 -45 -10 18 -10 17 -14 0 -13 0 -5 -12 -5
-13 5 -75 6 -76 -8 -117 -7 -116 -20 -7 -20 -6 5 -38 5 -39 -17 -15 -18 -16
-5 0 -6 0 -5 21 -6 21 -38 -7 -38 -7 -12 -9 -11 -10 -44 -3 -43 -4 -71 -7 -70
-8 -59 18 -59 17 -45 -7 -46 -7 -35 -18 -35 -18 -101 -7 -101 -7 -64 20 -64
21 -60 18 -60 18 -6 60 -6 60 -17 65 -17 65 -16 60 -17 60 -34 105 -34 105
-24 85 -23 85 0 -38 -1 -38 16 -107 16 -107 18 -40 17 -40 23 -110 23 -110 5
-35 4 -35 9 -11 10 -12 14 -67 14 -67 3 -2 3 -3 75 -12 75 -12 110 -10 110
-10 29 -9 29 -10 29 0 29 0 22 14 22 13 92 13 93 13 77 -7 78 -7 45 1 45 0 85
16 85 15 37 11 36 11 -9 24 -9 24 13 14 14 13 8 89 9 88 0 100 1 100 12 21 12
20 6 99 6 99 29 46 30 47 0 23 0 23 30 101 30 101 8 83 8 82 -8 0 -7 0 -10
-37z"/>
<path d="M799 1261 l-44 -29 -45 -47 -45 -46 -50 -37 -50 -36 -53 -52 -54 -53
-46 -22 -47 -22 -58 -49 -59 -48 -6 0 -7 0 -15 10 -14 9 6 6 6 7 -24 71 -25
72 5 20 5 20 -9 15 -9 14 -20 -18 -21 -19 0 -18 0 -18 13 -8 13 -8 10 -53 11
-52 -14 -11 -13 -11 0 -16 0 -16 27 -22 28 -22 -31 -34 -31 -33 -22 -29 -22
-29 3 -201 2 -201 -36 -36 -36 -35 -7 -47 -7 -47 6 -25 6 -25 24 -6 24 -6 45
21 46 21 42 0 41 0 72 16 71 16 53 15 52 16 58 -40 57 -39 28 -12 28 -12 28 0
28 0 24 19 24 19 38 21 38 21 109 0 109 0 6 -10 6 -10 87 0 87 0 36 6 36 6 12
50 11 50 0 22 0 22 19 40 19 39 15 55 15 55 22 95 22 95 18 35 17 35 28 95 28
95 12 15 11 15 22 85 23 85 14 45 14 44 -4 4 -3 3 -30 -63 -30 -63 -18 -40
-17 -40 -40 -95 -39 -95 -28 -70 -27 -70 -37 -100 -37 -100 -19 -50 -19 -50
-9 -35 -10 -35 -14 -60 -13 -60 -150 -3 -150 -3 -38 11 -37 11 -58 -17 -57
-18 -30 -34 -31 -34 -19 3 -20 4 -3 26 -3 27 -98 32 -98 33 -49 -17 -49 -16
-65 -9 -65 -9 -48 -17 -48 -16 -15 12 -14 11 0 17 0 17 12 12 12 12 -9 0 -8 0
17 19 18 20 -1 160 -1 159 13 24 12 23 47 43 47 44 31 48 31 48 -6 24 -5 23
43 26 42 27 30 15 31 15 47 54 47 53 23 25 24 25 93 80 93 80 36 32 36 31 -6
6 -5 6 -45 -29z"/>
<path d="M6036 1233 l16 -48 8 -30 8 -30 1 24 1 24 -17 54 -17 53 -7 0 -8 0
15 -47z"/>
<path d="M7792 1208 l-40 -53 -17 -60 -17 -60 -14 -31 -13 -31 -36 -93 -36
-93 11 -11 11 -11 16 20 15 20 25 52 24 51 6 52 6 51 8 5 9 5 0 30 0 30 15 37
16 37 31 48 31 48 -6 5 -5 6 -40 -54z"/>
<path d="M17635 1133 l6 -28 55 -115 55 -115 23 -43 23 -43 86 -98 86 -98 27
-79 26 -79 24 -48 25 -48 -12 -42 -13 -42 -9 -12 -9 -13 -52 0 -51 0 -65 -11
-65 -10 -170 -4 -170 -4 -35 -10 -35 -11 -2 0 -3 0 0 83 0 84 -18 16 -19 17
-5 0 -6 0 -6 -57 -7 -58 -6 -42 -5 -43 -14 0 -13 0 17 -30 17 -31 20 5 20 4
60 18 60 18 99 -2 100 -2 65 16 66 15 60 0 60 1 45 -11 45 -11 29 0 29 0 33
35 33 35 4 0 5 0 21 -36 21 -35 9 6 10 5 38 -26 38 -26 78 6 78 7 38 15 38 15
80 -21 79 -20 95 -4 94 -4 98 10 99 10 24 -23 23 -22 63 8 63 8 70 -1 70 -2
146 -12 146 -11 17 6 17 7 -3 21 -3 22 -15 7 -15 8 -42 9 -41 10 -16 -9 -15
-9 -63 10 -63 10 -145 12 -145 11 -20 0 -20 0 -195 -1 -195 -1 -98 15 -99 15
-18 -10 -19 -10 -60 0 -60 0 -25 10 -25 9 -30 58 -29 58 -43 31 -44 31 -20 7
-20 6 -26 57 -27 58 -22 51 -22 51 -50 39 -51 39 -21 20 -21 20 -46 51 -46 50
-22 60 -22 59 -47 93 -46 92 -9 0 -9 0 7 -27z"/>
<path d="M8567 1097 l-36 -44 -36 -62 -37 -62 6 -6 5 -5 14 5 14 5 62 91 61
92 0 14 0 15 -9 0 -9 0 -35 -43z"/>
<path d="M15910 1085 l0 -16 -40 -123 -40 -123 0 -21 0 -22 10 0 10 0 0 16 0
16 29 63 30 63 10 39 11 38 0 37 0 37 -10 6 -10 6 0 -16z"/>
<path d="M6063 1070 l6 -25 7 -60 7 -60 8 -22 9 -23 20 0 20 0 0 12 0 12 -25
82 -25 81 -17 14 -16 14 6 -25z"/>
<path d="M13285 993 l-25 -28 -6 -18 -6 -19 6 -5 6 -6 39 44 40 44 1 8 0 7
-15 0 -14 0 -26 -27z"/>
<path d="M8510 919 l-40 -51 -36 -64 -35 -64 6 -10 6 -10 14 7 13 8 66 100 66
100 0 18 0 17 -10 0 -10 0 -40 -51z"/>
<path d="M10148 815 l-67 -130 -97 -192 -97 -191 -26 -12 -26 -12 -110 -36
-110 -36 -115 2 -115 2 -69 -10 -68 -11 -15 13 -16 13 -176 6 -176 6 -43 16
-43 17 -250 -6 -250 -5 25 49 25 50 76 116 75 116 6 30 7 30 -12 0 -11 0 0
-17 0 -18 -56 -75 -56 -75 -47 -70 -47 -70 -17 -43 -17 -42 0 -24 0 -24 118 4
117 5 145 9 145 8 35 -17 35 -18 75 -7 75 -6 100 9 100 10 4 -10 3 -10 23 -9
23 -9 67 14 68 15 46 1 46 2 140 -2 140 -2 85 16 85 17 27 16 27 16 30 55 29
56 23 65 22 65 8 10 7 10 21 55 21 55 0 21 0 21 34 74 34 74 17 58 16 57 -3
18 -3 17 -67 -130z"/>
<path d="M5516 883 l-15 -30 -39 -114 -40 -114 -40 -90 -40 -90 -11 -41 -11
-42 -20 -44 -19 -44 -23 -21 -23 -21 -105 -35 -105 -35 -31 -6 -32 -7 -67 32
-68 32 -141 6 -141 7 -7 -11 -7 -10 -120 -1 -120 -1 -25 -16 -25 -17 -73 -11
-73 -11 -22 -4 -23 -4 0 -15 0 -15 33 -1 32 -2 35 3 35 2 18 19 18 19 32 1 32
0 45 5 45 4 80 17 80 16 47 -2 47 -1 42 -15 42 -15 38 0 39 0 0 -15 0 -14 53
-16 52 -17 67 -5 68 -6 12 11 13 10 64 16 64 16 43 19 43 19 51 -19 51 -19 37
11 37 11 210 -4 210 -4 48 -17 48 -18 57 22 57 23 4 3 4 3 -5 6 -6 5 -42 -11
-42 -11 -11 15 -12 14 -50 17 -50 17 -92 7 -91 6 -7 6 -6 7 16 68 17 69 18 86
18 85 21 42 21 42 -10 0 -11 0 -24 -52 -25 -53 -11 -55 -11 -55 -18 -35 -18
-35 -11 -59 -11 -60 0 -3 0 -3 -112 6 -113 5 -32 3 -32 2 -6 6 -6 6 14 29 15
28 16 70 16 70 26 70 27 70 48 155 48 154 -4 4 -4 4 -15 -29z"/>
<path d="M6120 830 l0 -15 30 -180 30 -180 30 -135 31 -135 10 -33 11 -32 24
0 24 0 0 25 0 25 5 0 6 0 29 -15 29 -15 34 -5 34 -6 87 15 87 16 19 10 20 10
10 20 11 20 52 -6 52 -6 123 16 123 16 77 -6 77 -6 100 12 100 11 70 6 70 5
22 20 22 20 79 -21 78 -21 35 0 35 0 105 -42 104 -41 51 -5 51 -4 8 11 7 12
-18 20 -17 19 -9 0 -9 0 -142 56 -142 56 -80 19 -80 20 -22 6 -23 5 0 17 0 17
25 119 25 120 11 33 11 33 -6 6 -6 6 -19 -17 -19 -17 -21 -49 -21 -48 -21
-102 -22 -101 -18 -10 -19 -10 0 -23 0 -23 -92 -31 -93 -31 -84 -16 -83 -17
-37 7 -36 7 -130 9 -130 9 -57 6 -57 6 -43 -21 -43 -21 -45 -11 -45 -11 -61
-14 -61 -13 -43 7 -44 7 -8 30 -8 30 -36 155 -37 155 -22 96 -22 97 -21 33
-22 34 0 -15z"/>
<path d="M13183 793 l-40 -48 -12 -38 -13 -39 -28 -31 -27 -32 -6 -26 -7 -27
-43 -48 -43 -49 -13 -32 -13 -32 7 -29 6 -29 -17 -14 -17 -14 -14 -33 -14 -33
-27 -11 -27 -11 -82 -2 -81 -3 -10 -6 -9 -5 -129 -17 -129 -16 -52 -5 -53 -5
0 -16 0 -15 88 6 87 7 111 10 112 10 33 -14 34 -14 45 8 45 8 40 14 40 14 29
60 29 59 17 47 18 46 -11 11 -11 11 12 0 12 0 0 15 0 14 25 37 25 37 12 41 12
41 17 15 17 15 18 55 17 55 34 39 33 40 0 13 0 13 -3 0 -4 0 -40 -47z"/>
<path d="M1726 770 l-6 -15 -14 -47 -14 -48 8 0 8 0 17 50 17 50 -5 13 -5 12
-6 -15z"/>
<path d="M15805 698 l-7 -43 -35 -105 -35 -105 -33 -50 -33 -50 -27 -25 -27
-25 -14 -34 -14 -33 0 -13 0 -13 15 -6 14 -5 16 15 16 16 -6 20 -7 19 12 14
12 15 22 0 21 0 37 20 37 20 40 -68 39 -67 19 -16 18 -16 34 -17 34 -16 17 0
16 0 11 11 11 11 33 -11 32 -11 24 0 25 0 5 20 5 19 20 7 21 6 86 -7 86 -7 42
-27 42 -28 113 -6 113 -6 150 4 150 5 85 7 85 8 3 21 3 21 -76 12 -76 11 -112
0 -112 1 -197 13 -196 14 -112 -8 -111 -9 -24 -15 -23 -15 -38 12 -39 12 -10
8 -10 8 -32 19 -32 19 -25 40 -25 39 -36 70 -36 71 -11 3 -10 4 21 84 21 84 0
48 0 48 -9 0 -9 0 -7 -42z"/>
<path d="M8458 688 l-35 -43 -18 -35 -17 -35 -18 -20 -19 -20 -6 -27 -7 -28
16 0 17 0 27 45 27 45 47 73 48 72 0 8 0 7 -14 0 -14 0 -34 -42z"/>
<path d="M10367 690 l-16 -25 -7 -29 -7 -29 12 7 11 7 15 36 15 37 -3 10 -4
11 -16 -25z"/>
<path d="M14215 654 l-30 -39 -48 -53 -48 -54 3 -16 3 -17 12 0 11 0 52 70 52
70 15 28 14 28 -3 11 -4 10 -29 -38z"/>
<path d="M15526 593 l-18 -88 -25 -75 -25 -75 -17 -28 -16 -28 -33 6 -34 6
-22 -14 -22 -15 -35 -2 -34 -3 -17 2 -16 1 -32 52 -32 52 4 68 5 68 -7 0 -8 0
-5 -17 -5 -18 -21 -55 -21 -55 0 -18 0 -19 -45 -59 -45 -59 0 -19 0 -19 -16
-6 -17 -6 -42 20 -41 20 -27 0 -27 0 0 -16 0 -16 26 5 25 4 12 -11 12 -12 32
-13 33 -13 34 6 35 7 21 26 20 26 0 12 0 12 19 17 20 18 10 -7 11 -6 0 -23 0
-23 25 -11 26 -12 55 0 55 0 35 15 36 15 36 -8 37 -8 30 0 29 1 18 75 17 75
10 92 11 92 0 63 0 63 -9 13 -8 13 -17 -88z"/>
<path d="M14249 599 l-11 -21 -77 -87 -77 -86 -29 -39 -30 -39 11 4 11 4 106
113 106 112 6 20 6 20 10 0 9 0 0 10 0 10 -15 0 -14 0 -12 -21z"/>
<path d="M1672 563 l-11 -28 -11 -38 -12 -38 6 -6 6 -6 19 44 20 44 6 28 7 27
-10 0 -10 0 -10 -27z"/>
<path d="M10287 489 l-28 -64 -8 -15 -8 -15 -18 -68 -19 -69 -14 -6 -15 -5
-39 41 -38 41 0 21 0 20 -10 0 -10 0 0 -2 1 -3 17 -62 17 -61 38 -42 37 -42
37 3 38 3 37 -13 36 -12 12 -15 12 -14 83 0 82 0 109 20 109 20 80 0 81 0 39
20 39 20 18 0 18 0 0 10 0 10 -35 0 -34 0 -11 43 -11 42 -14 51 -15 52 -20 23
-19 24 -1 -38 0 -38 15 -36 15 -35 0 -26 0 -25 16 -18 16 -18 -5 -16 -6 -15
-23 1 -23 0 -110 15 -110 15 -15 0 -15 1 -105 -2 -105 -1 -45 14 -45 15 -33 7
-33 7 6 16 6 17 30 123 30 123 -3 11 -4 11 -27 -64z"/>
<path d="M13396 488 l-16 -22 0 -18 0 -18 8 0 8 0 17 35 16 34 -9 6 -9 5 -15
-22z"/>
<path d="M14184 442 l-51 -57 -65 -85 -66 -85 -32 -24 -32 -23 -67 6 -66 6
-105 4 -106 3 -38 13 -38 12 -64 -4 -63 -4 -7 -7 -7 -7 4 -4 4 -5 90 -11 90
-12 147 -29 147 -29 25 0 25 0 49 19 48 19 41 -11 41 -11 43 17 44 16 90 -5
90 -5 133 -20 134 -19 46 0 47 1 25 14 25 14 28 1 27 0 0 10 0 10 -27 6 -28 7
-10 7 -10 7 -62 7 -63 7 0 -12 0 -11 -27 5 -28 5 -115 21 -115 21 -120 0 -120
0 -39 -10 -39 -9 45 47 45 47 76 87 77 88 0 15 0 15 -12 -1 -13 0 -51 -57z"/>
<path d="M1644 426 l-6 -15 -13 5 -13 5 -16 -32 -16 -32 0 -13 0 -12 -30 -57
-30 -57 0 -43 0 -43 -12 -5 -13 -4 10 -11 10 -10 160 -11 160 -12 35 1 35 2
80 -12 80 -12 100 -1 100 -1 65 18 65 17 55 15 55 15 80 -16 80 -16 23 -1 23
0 6 6 6 6 -39 35 -39 34 -35 11 -35 10 -25 0 -25 0 -33 -20 -32 -20 -48 -11
-47 -11 -22 -10 -22 -11 -48 13 -48 12 -95 5 -95 4 -60 14 -60 14 -58 -3 -57
-3 -7 -6 -6 -7 -108 0 -108 0 6 33 6 32 38 113 38 112 -5 0 -5 0 -5 -14z"/>
<path d="M13336 296 l-36 -79 0 -7 0 -8 -85 -13 -85 -12 -38 20 -37 19 2 45 3
44 -31 -62 -31 -63 13 -17 14 -16 44 -29 45 -28 7 0 8 0 32 29 32 30 39 5 38
6 41 6 40 6 -6 16 -6 16 27 63 27 63 -10 23 -10 22 -37 -79z"/>
<path d="M11120 246 l0 -16 -37 -17 -38 -17 40 -4 40 -3 15 19 16 19 129 -19
130 -18 110 -15 110 -14 55 -13 55 -13 227 0 227 0 18 17 17 18 -12 12 -11 11
-143 14 -143 14 -63 -13 -62 -12 -63 22 -62 21 -152 -6 -152 -6 -73 11 -73 11
-52 6 -53 7 0 -16z"/>
</g>
</svg>
