<?xml version="1.0" encoding="UTF-8" standalone="no"?>
<svg
   xmlns:dc="http://purl.org/dc/elements/1.1/"
   xmlns:cc="http://creativecommons.org/ns#"
   xmlns:rdf="http://www.w3.org/1999/02/22-rdf-syntax-ns#"
   xmlns:svg="http://www.w3.org/2000/svg"
   xmlns="http://www.w3.org/2000/svg"
   xmlns:sodipodi="http://sodipodi.sourceforge.net/DTD/sodipodi-0.dtd"
   xmlns:inkscape="http://www.inkscape.org/namespaces/inkscape"
   inkscape:version="1.0 (4035a4fb49, 2020-05-01)"
   sodipodi:docname="test-mask.svg"
   id="svg20"
   preserveAspectRatio="xMidYMid meet"
   viewBox="0 0 407.941868 219.992006"
   height="219.992006pt"
   width="407.941868pt"
   version="1.0">
  <defs
     id="defs24" />
  <sodipodi:namedview
     inkscape:current-layer="svg20"
     inkscape:window-maximized="1"
     inkscape:window-y="0"
     inkscape:window-x="0"
     inkscape:cy="19.14039"
     inkscape:cx="-17.626316"
     inkscape:zoom="3.5412378"
     showgrid="false"
     id="namedview22"
     inkscape:window-height="1377"
     inkscape:window-width="2560"
     inkscape:pageshadow="2"
     inkscape:pageopacity="0"
     guidetolerance="10"
     gridtolerance="10"
     objecttolerance="10"
     borderopacity="1"
     bordercolor="#666666"
     pagecolor="#ffffff" />
  <metadata
     id="metadata2">
Created by potrace 1.16, written by Peter Selinger 2001-2019
<rdf:RDF>
  <cc:Work
     rdf:about="">
    <dc:format>image/svg+xml</dc:format>
    <dc:type
       rdf:resource="http://purl.org/dc/dcmitype/StillImage" />
    <dc:title></dc:title>
  </cc:Work>
</rdf:RDF>
</metadata>
  <path
     transform="scale(0.75000002)"
     d="M 11.484375,4.8085938 A 2.8794211,2.8794211 0 0 1 8.3691406,5.5039062 l -1.515625,-0.5839843 -1.6484375,2.25 L 3.015625,10.253906 3.6875,13.419922 a 2.8794211,2.8794211 0 0 1 0.013672,0.06641 l 0.7910156,4.212891 2.78125,12.197265 2.9316405,12.251954 a 2.8794211,2.8794211 0 0 1 -0.06836,1.580078 L 8.40625,48.917969 6.9140625,53.511719 7.8125,57.78125 l 0.8125,3.341797 2.490234,0.830078 4,1.332031 A 2.8794211,2.8794211 0 0 1 15.980469,63.75 l 3.066406,2.400391 3.066406,2.40039 a 2.8794211,2.8794211 0 0 1 -1.005859,5.041016 l -4.800781,1.332031 a 2.8794211,2.8794211 0 0 1 -0.01758,0.0059 l -4.001953,1.082031 -1.24414,1.599609 -1.2031252,1.666016 -0.089844,1.875 v 1.49414 l 0.361328,0.398438 1.220703,1.101562 a 2.8794211,2.8794211 0 0 1 0.951172,2.087891 l 0.267578,14.933595 a 2.8794211,2.8794211 0 0 1 0,0.0254 l 0.132813,14.79883 a 2.8794211,2.8794211 0 0 1 -0.361328,1.42187 l -0.666016,1.20117 a 2.8794211,2.8794211 0 0 1 -0.05078,0.0879 l -0.421875,0.70118 -0.769532,18.73242 -0.7050776,17.16601 1.2070316,0.32422 3.292968,0.79297 a 2.8794211,2.8794211 0 0 1 2.115235,3.51953 l -0.931641,3.59961 a 2.8794211,2.8794211 0 0 1 -0.01758,0.0645 l -0.707031,2.49609 a 2.8794211,2.8794211 0 0 1 -0.59375,1.09961 c -0.547598,0.63178 -0.372069,0.48129 -0.423828,0.29101 a 2.8794211,2.8794211 0 0 1 0.01172,1.47071 l -1.068359,4.17187 -1.259766,4.92383 2.800782,8.65039 3.193359,9.31055 a 2.8794211,2.8794211 0 0 1 0.128906,0.53515 l 0.931641,6.66602 0.933594,6.66797 a 2.8794211,2.8794211 0 0 1 0.02734,0.44531 l -0.132812,8.26367 -0.08594,5.47657 h 0.541016 3.332031 a 2.8794211,2.8794211 0 0 1 2.433594,4.41796 l 0.09961,0.0664 a 2.8794211,2.8794211 0 0 1 1.19336,3.0918 l -0.666016,2.66601 -0.316406,1.27149 0.824219,1.01562 0.638672,0.78516 1.628906,-0.32617 a 2.8794211,2.8794211 0 0 1 0.02148,-0.004 l 3.466797,-0.66602 a 2.8794211,2.8794211 0 0 1 2.271484,5.13086 l -2.666015,2 a 2.8794211,2.8794211 0 0 1 -0.002,0.002 l -2.667969,2 a 2.8794211,2.8794211 0 0 1 -0.02344,0.0176 l -1.988281,1.45703 -1.820312,1.36523 -4.302735,5.43945 a 2.8794211,2.8794211 0 0 1 -0.01953,0.0274 l -3.943359,4.86914 -0.21875,4.39453 a 2.8794211,2.8794211 0 0 1 0,0.002 l -0.267578,5.33399 a 2.8794211,2.8794211 0 0 1 -0.464844,1.43164 l -2.267578,3.46679 a 2.8794211,2.8794211 0 0 1 -0.01367,0.0195 l -1.957032,2.93554 -0.228515,4.93555 a 2.8794211,2.8794211 0 0 1 -0.0039,0.0664 l -0.283203,4.04687 2.050781,1.3418 a 2.8794211,2.8794211 0 0 1 0.002,0 l 2.714844,1.77734 9.501953,-0.24609 a 2.8794211,2.8794211 0 0 1 0.03711,0 l 10.083984,-0.12891 4.75586,-1.125 a 2.8794211,2.8794211 0 0 1 0.07031,-0.0176 l 5.066407,-1.0664 a 2.8794211,2.8794211 0 0 1 0.808593,-0.0527 l 5.333985,0.39844 a 2.8794211,2.8794211 0 0 1 0.0059,0 l 5.199219,0.40039 a 2.8794211,2.8794211 0 0 1 0.06445,0.006 l 1.333984,0.13281 a 2.8794211,2.8794211 0 0 1 0.0039,0 l 1.123047,0.11524 11.507812,-0.52344 11.275391,-0.64258 7.722656,-2.91015 a 2.8794211,2.8794211 0 0 1 0.02344,-0.01 l 8,-2.93359 a 2.8794211,2.8794211 0 0 1 2.435546,0.21093 l 2.5332,1.4668 a 2.8794211,2.8794211 0 0 1 0.0937,0.0586 l 1.47266,0.92969 4.26367,-3.83594 5.33399,-4.80078 a 2.8794211,2.8794211 0 0 1 4.75195,2.6875 l -0.80078,4.13282 -0.54492,2.82812 0.76757,0.96094 0.0801,0.0996 0.27344,-0.15235 a 2.8794211,2.8794211 0 0 1 0.11133,-0.0586 l 2.40039,-1.19922 a 2.8794211,2.8794211 0 0 1 0.98437,-0.28711 l 11.33204,-1.20117 a 2.8794211,2.8794211 0 0 1 0.0351,-0.004 l 11.4668,-1.0664 a 2.8794211,2.8794211 0 0 1 1.29297,0.17578 l 2.76367,1.05273 1.68359,0.58985 2.45508,-0.84961 3.26953,-1.3086 a 2.8794211,2.8794211 0 0 1 1.07032,-0.20507 h 6.93359 6.93164 a 2.8794211,2.8794211 0 0 1 0.6875,0.084 l 8.64844,2.12695 6.91211,1.59571 1.40039,-1.69532 2.5332,-3.0664 a 2.8794211,2.8794211 0 0 1 3.04687,-0.92383 l 1.29883,0.39062 0.3418,0.0937 2.02344,-1.05664 3.02539,-1.70898 a 2.8794211,2.8794211 0 0 1 2.67383,-0.084 l 4.65234,2.25977 4.20117,1.98438 h 1.22266 0.68554 l 3.33204,-2.79297 4.13281,-3.4668 a 2.8794211,2.8794211 0 0 1 4.72851,2.20508 v 0.69531 l 2.06641,0.96094 a 2.8794211,2.8794211 0 0 1 0.0352,0.0176 l 3.14257,1.51171 2.16407,0.2168 1.92773,0.19336 2.06641,-0.88476 2.74609,-1.31055 a 2.8794211,2.8794211 0 0 1 2.37305,-0.0469 l 4.66797,2 3.2832,1.40821 0.85547,-0.53516 a 2.8794211,2.8794211 0 0 1 0.17773,-0.10352 l 0.73633,-0.38867 v -2.40039 -4.13281 a 2.8794211,2.8794211 0 0 1 4.85547,-2.09375 l 7.19922,6.79883 6.3418,5.98828 4.54882,-0.10547 a 2.8794211,2.8794211 0 0 1 0.0664,0 h 4.89453 l 2.16016,-1.375 2.73828,-1.95703 a 2.8794211,2.8794211 0 0 1 2.74219,-0.33008 l 3.30664,1.32031 2.86328,1.07618 7.67578,1.02343 a 2.8794211,2.8794211 0 0 1 0.006,0 l 7.63086,1.03516 8.42773,-0.25781 a 2.8794211,2.8794211 0 0 1 0.043,-0.002 l 8.26953,-0.12695 2.83985,-1.13477 a 2.8794211,2.8794211 0 0 1 0.125,-0.0469 l 3.46679,-1.20117 a 2.8794211,2.8794211 0 0 1 2.50196,0.29883 l 1.86523,1.20117 1.15625,0.74219 h 2.6211 2.14062 l 0.75781,-0.75782 1.4668,-1.46484 a 2.8794211,2.8794211 0 0 1 4.26758,0.2168 l 2.93164,3.59961 a 2.8794211,2.8794211 0 0 1 0.0312,0.0391 l 2.4414,3.10742 2.05469,0.78125 1.17383,0.44727 0.95898,-0.84571 2.39649,-2.1289 a 2.8794211,2.8794211 0 0 1 2.27539,-0.70313 l 6.23437,0.79492 5.4961,0.57227 1.49219,-0.79102 2.26562,-1.19922 a 2.8794211,2.8794211 0 0 1 2.41602,-0.1289 l 3.28711,1.31445 2.83789,1.02149 7.91796,0.125 8.09376,0.1289 7.03124,-1.40625 a 2.8794211,2.8794211 0 0 1 0.0508,-0.01 l 7.33203,-1.33204 a 2.8794211,2.8794211 0 0 1 0.12695,-0.0215 l 4.92969,-0.66602 4.48437,-0.62304 3.2793,-1.21485 3.70898,-1.45703 a 2.8794211,2.8794211 0 0 1 0.95118,-0.19726 l 18.79882,-0.66602 18.69532,-0.66211 7.22656,-0.78906 a 2.8794211,2.8794211 0 0 1 0.0527,-0.006 l 7.33399,-0.66601 a 2.8794211,2.8794211 0 0 1 0.16406,-0.01 l 4,-0.13281 a 2.8794211,2.8794211 0 0 1 0.002,0 l 4.13282,-0.13477 a 2.8794211,2.8794211 0 0 1 1.24609,0.23828 l 11.5957,5.06446 10.08985,4.35742 0.37109,-0.3125 0.875,-0.74219 0.66016,-5.28516 a 2.8794211,2.8794211 0 0 1 0.002,-0.006 l 0.79883,-6.26757 a 2.8794211,2.8794211 0 0 1 0.0332,-0.20118 l 0.5332,-2.66601 0.34571,-1.73047 -0.76563,-1.61719 -1.30469,-2.47851 a 2.8794211,2.8794211 0 0 1 1.03711,-3.79297 l 0.44727,-0.27539 -0.70508,-0.70508 a 2.8794211,2.8794211 0 0 1 -0.84375,-2.03516 v -2.40039 -2.40039 a 2.8794211,2.8794211 0 0 1 1.47266,-2.50976 2.8794211,2.8794211 0 0 1 0.43359,-3.11329 l 3.56836,-4.09765 2.28516,-2.8125 -2.26758,-4.73438 -3.18945,-6.3789 a 2.8794211,2.8794211 0 0 1 -0.24414,-1.86328 l 2.40039,-11.73243 2.15039,-10.52734 -1.42774,-2.05273 a 2.8794211,2.8794211 0 0 1 -0.0488,-0.0723 l -2,-3.06641 a 2.8794211,2.8794211 0 0 1 -0.46679,-1.57226 v -2.26758 -0.79297 l -1.20703,-0.87304 a 2.8794211,2.8794211 0 0 1 -0.0625,-0.0469 l -2.26563,-1.73242 a 2.8794211,2.8794211 0 0 1 0.0957,-4.64453 l 2.62891,-1.8418 2.62695,-1.9707 a 2.8794211,2.8794211 0 0 1 2.38086,-0.5 2.8794211,2.8794211 0 0 1 0.0566,-0.10743 l 1.08008,-1.86328 v -2.36328 l -0.13086,-3.0039 a 2.8794211,2.8794211 0 0 1 0,-0.23633 l 0.79883,-20.66797 0.80078,-20.66602 a 2.8794211,2.8794211 0 0 1 0.24219,-1.05078 l 2,-4.5332 a 2.8794211,2.8794211 0 0 1 0.0293,-0.0645 l 1.73242,-3.67969 -0.88086,-4.50977 -0.76367,-3.48242 -2.68946,-0.38476 a 2.8794211,2.8794211 0 0 1 -0.0801,-0.0117 l -4.66602,-0.80078 a 2.8794211,2.8794211 0 0 1 -0.92187,-5.34961 l 3.29492,-1.84571 3.29882,-1.97851 a 2.8794211,2.8794211 0 0 1 0.19336,-0.10742 l 2.61524,-1.30664 1.34961,-0.74024 0.20312,-1.49805 a 2.8794211,2.8794211 0 0 1 0.0176,-0.10547 l 0.30078,-1.72851 -0.71875,-0.83594 a 2.8794211,2.8794211 0 0 1 0,-0.002 l -1.59961,-1.86719 a 2.8794211,2.8794211 0 0 1 -0.49609,-2.923827 l 1.18164,-3.013672 0.89453,-2.574219 0.12695,-8.86914 0.13282,-9.332031 a 2.8794211,2.8794211 0 0 1 0.006,-0.148438 l 1.46679,-22.267578 1.4668,-22.265625 a 2.8794211,2.8794211 0 0 1 0.29883,-1.099609 l 1.20117,-2.400391 a 2.8794211,2.8794211 0 0 1 0.0566,-0.107422 l 0.90039,-1.623047 -0.45117,-4.845703 a 2.8794211,2.8794211 0 0 1 0,-0.002 l -0.48828,-5.263672 -1.39063,-3.126953 -0.91015,-1.8886719 -4.14649,0.091797 -5.88867,0.1289062 -9.2207,0.9238278 a 2.8794211,2.8794211 0 0 1 -0.041,0.0039 l -9.24414,0.792968 -7.9082,1.185547 -8,1.201172 a 2.8794211,2.8794211 0 0 1 -1.48438,-0.169922 l -5.0664,-2 a 2.8794211,2.8794211 0 0 1 -0.0605,-0.02539 l -4.08008,-1.7187504 -8.44922,2.7363284 a 2.8794211,2.8794211 0 0 1 -0.01,0.0039 l -9.33594,2.984375 -5.34375,2.925781 -5.45508,3.060547 a 2.8794211,2.8794211 0 0 1 -3.44336,-0.476562 l -1.31445,-1.314454 -2.5332,1.304688 a 2.8794211,2.8794211 0 0 1 -0.0312,0.01758 l -4.19141,2.09375 -2.11523,1.882813 -2.39844,2.132812 a 2.8794211,2.8794211 0 0 1 -4.57813,-3.246094 l 0.34766,-0.845703 a 2.8794211,2.8794211 0 0 1 -1.46289,-3.564453 l 0.63281,-1.769531 -1.95508,-1.519531 a 2.8794211,2.8794211 0 0 1 -0.0117,-0.0098 l -2.85546,-2.244141 -9.6836,0.716797 -10.58398,0.794922 -5.91797,0.789063 -6,0.798828 a 2.8794211,2.8794211 0 0 1 -0.42383,0.02539 l -9.04492,-0.132812 h -9.04492 a 2.8794211,2.8794211 0 0 1 -1.13477,-0.232422 l -3.71484,-1.591797 -2.57422,-1.066406 -1.45508,0.800781 a 2.8794211,2.8794211 0 0 1 -0.0449,0.02344 l -2.5332,1.333984 a 2.8794211,2.8794211 0 0 1 -3.37696,-0.511719 l -0.16211,-0.162109 -12.40429,-0.867188 -13.1836,-0.921875 -7.44922,0.259766 a 2.8794211,2.8794211 0 0 1 -0.0488,0.002 l -7.42188,0.13086 -8.08789,0.398437 a 2.8794211,2.8794211 0 0 1 -0.0449,0.002 l -6.99024,0.234375 -1.09961,0.941406 a 2.8794211,2.8794211 0 0 1 -0.0117,0.01172 l -1.73243,1.466797 a 2.8794211,2.8794211 0 0 1 -2.11523,0.669922 l -12,-1.066406 a 2.8794211,2.8794211 0 0 1 -0.004,0 l -10.40039,-0.933594 -0.70117,0.808594 -1.53906,2.050781 a 2.8794211,2.8794211 0 0 1 -3.26172,0.988281 l -4.5332,-1.599609 a 2.8794211,2.8794211 0 0 1 -0.0449,-0.01563 l -3.7871,-1.408203 -2.4336,0.68164 a 2.8794211,2.8794211 0 0 1 -0.10351,0.02539 l -3.33399,0.800781 a 2.8794211,2.8794211 0 0 1 -2.13281,-0.318359 l -2.23438,-1.314453 -0.88476,-0.492188 -0.67383,0.421875 -2.24805,1.455078 a 2.8794211,2.8794211 0 0 1 -3.04492,0.05078 l -5.98047,-3.58789 -5.17383,-2.988281 -5.60546,0.572265 -6.53516,0.666016 a 2.8794211,2.8794211 0 0 1 -0.17188,0.01172 l -12.79882,0.533203 -12.1836,0.509765 -2.31054,1.152344 -1.28125,0.732422 v 1.128906 a 2.8794211,2.8794211 0 0 1 -3.05664,2.873047 L 180.42773,18.625 167.36133,17.824219 a 2.8794211,2.8794211 0 0 1 -0.26563,-0.02734 l -7.73242,-1.199219 a 2.8794211,2.8794211 0 0 1 -0.0566,-0.0098 l -7.59961,-1.333985 a 2.8794211,2.8794211 0 0 1 -1.02734,-0.394531 l -0.72071,-0.449219 -2.26171,1.210938 a 2.8794211,2.8794211 0 0 1 -0.0703,0.03711 l -3.73242,1.867188 a 2.8794211,2.8794211 0 0 1 -1.28906,0.304687 h -1.73438 -1.73242 a 2.8794211,2.8794211 0 0 1 -2.67187,-1.808594 l -1.58789,-3.96289 -1.15039,-2.6582034 -5.81055,5.5078124 -7.73242,7.332031 A 2.8794211,2.8794211 0 0 1 115.47461,21.0625 l -1.20117,-3.599609 a 2.8794211,2.8794211 0 0 1 -0.002,-0.002 l -1.00586,-3.023438 -2.25781,-2.482422 -1.07812,-1.1875 -0.64258,0.386719 a 2.8794211,2.8794211 0 0 1 -1.58203,0.408203 l -3.86719,-0.134766 -3.865234,-0.132812 A 2.8794211,2.8794211 0 0 1 98.345703,10.722656 L 96.744141,9.5234375 a 2.8794211,2.8794211 0 0 1 -0.002,-0.00195 l -0.701172,-0.5273438 -10.882813,1.0898434 -12,1.199219 a 2.8794211,2.8794211 0 0 1 -0.599609,-0.0039 L 65.224609,10.478516 58.083984,9.7011719 52.808594,9.8300781 47.341797,9.9628906 A 2.8794211,2.8794211 0 0 1 46.931641,9.9433594 L 35.732422,8.6113281 24.53125,7.2773438 A 2.8794211,2.8794211 0 0 1 24.199219,7.2167969 L 20.865234,6.4160156 17.722656,5.6640625 15.25,5.4160156 12.585938,5.1503906 A 2.8794211,2.8794211 0 0 1 11.484375,4.8085938 Z M 24.134766,227.63281 c 0.940845,0.59822 0.431119,0.28236 1.166015,0.76563 l 0.04687,-0.0937 z"
     inkscape:original="M 11.271484 0.017578125 L 10.337891 1.3515625 L 9.4042969 2.8183594 L 7.671875 2.1503906 L 5.8046875 1.484375 L 2.8710938 5.484375 L -0.0625 9.6171875 L 0.87109375 14.017578 L 1.671875 18.285156 L 4.4707031 30.550781 L 7.4042969 42.818359 L 5.671875 48.017578 L 3.9375 53.351562 L 5.0039062 58.417969 L 6.2050781 63.351562 L 10.205078 64.685547 L 14.205078 66.017578 L 17.271484 68.417969 L 20.337891 70.818359 L 15.537109 72.150391 L 10.605469 73.484375 L 8.7382812 75.884766 L 7.0039062 78.285156 L 6.8710938 81.083984 L 6.8710938 83.751953 L 8.0722656 85.083984 L 9.4042969 86.285156 L 9.671875 101.21875 L 9.8046875 116.01758 L 9.1386719 117.21875 L 8.3378906 118.55078 L 7.5371094 138.01758 L 6.7382812 157.48438 L 10.205078 158.41797 L 13.537109 159.21875 L 12.605469 162.81836 L 11.898438 165.31445 C 11.133482 166.197 10.574835 167.14983 10.873047 168.24609 L 9.8046875 172.41797 L 8.3378906 178.15039 L 11.404297 187.61719 L 14.605469 196.95117 L 15.537109 203.61719 L 16.470703 210.28516 L 16.337891 218.55078 L 16.205078 226.95117 L 19.671875 226.95117 L 23.003906 226.95117 L 22.205078 228.15039 L 21.537109 229.48438 L 22.738281 230.15039 L 23.9375 230.95117 L 23.271484 233.61719 L 22.605469 236.28516 L 24.337891 238.41797 L 26.072266 240.55078 L 29.404297 239.88477 L 32.871094 239.21875 L 30.205078 241.21875 L 27.537109 243.21875 L 25.537109 244.68555 L 23.404297 246.28516 L 18.871094 252.01758 L 14.337891 257.61719 L 14.072266 262.95117 L 13.804688 268.28516 L 11.537109 271.75195 L 9.1386719 275.35156 L 8.8710938 281.08398 L 8.4707031 286.81836 L 11.9375 289.08398 L 15.404297 291.35156 L 25.804688 291.08398 L 36.205078 290.95117 L 41.271484 289.75195 L 46.337891 288.68555 L 51.671875 289.08398 L 56.871094 289.48438 L 58.205078 289.61719 L 59.537109 289.75195 L 71.271484 289.21875 L 83.003906 288.55078 L 91.138672 285.48438 L 99.138672 282.55078 L 101.67188 284.01758 L 104.20508 285.61719 L 104.87109 285.61719 L 105.53711 285.61719 L 110.87109 280.81836 L 116.20508 276.01758 L 115.4043 280.15039 L 114.60547 284.28516 L 116.20508 286.28516 L 117.80469 288.28516 L 120.20508 286.95117 L 122.60547 285.75195 L 133.9375 284.55078 L 145.4043 283.48438 L 148.20508 284.55078 L 150.87109 285.48438 L 154.33789 284.28516 L 157.67188 282.95117 L 164.60547 282.95117 L 171.53711 282.95117 L 180.20508 285.08398 L 188.87109 287.08398 L 191.4043 284.01758 L 193.9375 280.95117 L 195.27148 281.35156 L 196.73828 281.75195 L 199.80469 280.15039 L 202.87109 278.41797 L 207.53711 280.68555 L 212.33789 282.95117 L 214.20508 282.95117 L 215.9375 282.95117 L 220.07227 279.48438 L 224.20508 276.01758 L 224.20508 277.35156 L 224.20508 278.55078 L 227.9375 280.28516 L 231.53711 282.01758 L 234.20508 282.28516 L 236.87109 282.55078 L 239.67188 281.35156 L 242.4707 280.01758 L 247.13867 282.01758 L 251.80469 284.01758 L 253.9375 282.68555 L 256.20508 281.48438 L 256.20508 277.35156 L 256.20508 273.21875 L 263.4043 280.01758 L 270.60547 286.81836 L 276.33789 286.68555 L 282.07227 286.68555 L 285.00391 284.81836 L 287.80469 282.81836 L 291.13867 284.15039 L 294.33789 285.35156 L 302.33789 286.41797 L 310.20508 287.48438 L 318.87109 287.21875 L 327.67188 287.08398 L 331.00391 285.75195 L 334.4707 284.55078 L 336.33789 285.75195 L 338.20508 286.95117 L 341.67188 286.95117 L 345.00391 286.95117 L 346.60547 285.35156 L 348.07227 283.88477 L 351.00391 287.48438 L 353.9375 291.21875 L 356.73828 292.28516 L 359.53711 293.35156 L 361.80469 291.35156 L 364.20508 289.21875 L 370.4707 290.01758 L 376.87109 290.68555 L 379.13867 289.48438 L 381.4043 288.28516 L 384.73828 289.61719 L 388.07227 290.81836 L 396.4707 290.95117 L 404.87109 291.08398 L 412.20508 289.61719 L 419.53711 288.28516 L 424.4707 287.61719 L 429.27148 286.95117 L 432.87109 285.61719 L 436.60547 284.15039 L 455.4043 283.48438 L 474.20508 282.81836 L 481.53711 282.01758 L 488.87109 281.35156 L 492.87109 281.21875 L 497.00391 281.08398 L 508.60547 286.15039 L 520.33789 291.21875 L 522.07227 289.75195 L 523.80469 288.28516 L 524.60547 281.88477 L 525.4043 275.61719 L 525.9375 272.95117 L 526.4707 270.28516 L 525.27148 267.75195 L 523.9375 265.21875 L 525.67188 264.15039 L 527.53711 263.08398 L 525.80469 261.35156 L 524.20508 259.75195 L 524.20508 257.35156 L 524.20508 254.95117 L 526.33789 254.95117 L 528.4707 254.95117 L 527.00391 253.08398 L 525.4043 251.21875 L 529.00391 247.08398 L 532.4707 242.81836 L 529.4043 236.41797 L 526.20508 230.01758 L 528.60547 218.28516 L 531.00391 206.55078 L 528.87109 203.48438 L 526.87109 200.41797 L 526.87109 198.15039 L 526.87109 195.88477 L 524.4707 194.15039 L 522.20508 192.41797 L 524.87109 190.55078 L 527.53711 188.55078 L 528.4707 189.08398 L 529.4043 189.75195 L 530.73828 187.08398 L 532.20508 184.55078 L 532.20508 181.35156 L 532.07227 178.28516 L 532.87109 157.61719 L 533.67188 136.95117 L 535.67188 132.41797 L 537.80469 127.88477 L 536.73828 122.41797 L 535.53711 116.95117 L 530.87109 116.28516 L 526.20508 115.48438 L 529.53711 113.61719 L 532.87109 111.61719 L 535.53711 110.28516 L 538.20508 108.81836 L 538.60547 105.88477 L 539.13867 102.81836 L 537.53711 100.95117 L 535.9375 99.083984 L 537.13867 96.017578 L 538.20508 92.951172 L 538.33789 83.617188 L 538.4707 74.285156 L 539.9375 52.017578 L 541.4043 29.751953 L 542.60547 27.351562 L 543.9375 24.951172 L 543.4043 19.21875 L 542.87109 13.484375 L 541.27148 9.8847656 L 539.53711 6.2851562 L 533.53711 6.4179688 L 527.53711 6.5507812 L 518.20508 7.484375 L 508.87109 8.2851562 L 500.87109 9.484375 L 492.87109 10.685547 L 487.80469 8.6855469 L 482.73828 6.5507812 L 473.27148 9.6171875 L 463.67188 12.685547 L 458.07227 15.751953 L 452.60547 18.818359 L 451.27148 17.484375 L 449.80469 16.017578 L 445.4043 18.285156 L 440.87109 20.550781 L 438.4707 22.685547 L 436.07227 24.818359 L 437.00391 22.550781 L 437.80469 20.285156 L 436.33789 20.285156 L 435.00391 20.285156 L 435.67188 18.417969 L 436.33789 16.550781 L 432.73828 13.751953 L 429.00391 10.818359 L 418.20508 11.617188 L 407.53711 12.417969 L 401.53711 13.21875 L 395.53711 14.017578 L 386.4707 13.884766 L 377.4043 13.884766 L 373.67188 12.285156 L 369.80469 10.685547 L 367.13867 12.150391 L 364.60547 13.484375 L 364.07227 12.951172 L 363.53711 12.550781 L 350.20508 11.617188 L 336.87109 10.685547 L 329.27148 10.951172 L 321.80469 11.083984 L 313.67188 11.484375 L 305.67188 11.751953 L 303.80469 13.351562 L 302.07227 14.818359 L 290.07227 13.751953 L 278.20508 12.685547 L 276.4707 14.685547 L 274.87109 16.818359 L 270.33789 15.21875 L 265.67188 13.484375 L 262.33789 14.417969 L 259.00391 15.21875 L 256.73828 13.884766 L 254.33789 12.550781 L 252.20508 13.884766 L 249.9375 15.351562 L 243.9375 11.751953 L 237.9375 8.2851562 L 231.4043 8.9511719 L 224.87109 9.6171875 L 212.07227 10.150391 L 199.27148 10.685547 L 196.33789 12.150391 L 193.53711 13.751953 L 193.53711 15.21875 L 193.53711 16.550781 L 180.60547 15.751953 L 167.53711 14.951172 L 159.80469 13.751953 L 152.20508 12.417969 L 151.13867 11.751953 L 150.07227 11.083984 L 146.33789 13.083984 L 142.60547 14.951172 L 140.87109 14.951172 L 139.13867 14.951172 L 137.53711 10.951172 L 135.80469 6.9511719 L 134.73828 6.1503906 L 133.67188 5.484375 L 125.9375 12.818359 L 118.20508 20.150391 L 117.00391 16.550781 L 115.80469 12.951172 L 113.13867 10.017578 L 110.4707 7.0839844 L 109.13867 7.8847656 L 107.80469 8.6855469 L 103.9375 8.5507812 L 100.07227 8.4179688 L 98.470703 7.21875 L 96.871094 6.0175781 L 84.871094 7.21875 L 72.871094 8.4179688 L 65.537109 7.6171875 L 58.205078 6.8183594 L 52.738281 6.9511719 L 47.271484 7.0839844 L 36.072266 5.7519531 L 24.871094 4.4179688 L 21.537109 3.6171875 L 18.205078 2.8183594 L 15.537109 2.5507812 L 12.871094 2.2851562 L 12.072266 1.0839844 L 11.271484 0.017578125 z "
     inkscape:radius="-2.8791332"
     sodipodi:type="inkscape:offset"
     style="fill:#000000;stroke:none;stroke-width:0.133333"
     id="path4" />
</svg>
